  double t1 = x20-x10;
  double t2 = t1*t1;
  double t3 = x21-x11;
  double t4 = t3*t3;
  double t5 = x22-x12;
  double t6 = t5*t5;
  double t8 = sqrt(t2+t4+t6);
  double t9 = x30-x20;
  double t10 = t9*t9;
  double t11 = x31-x21;
  double t12 = t11*t11;
  double t13 = x32-x22;
  double t14 = t13*t13;
  double t16 = sqrt(t10+t12+t14);
  double t21 = t1*t9+t3*t11+t5*t13+t8*t16;
  double t22 = t21*t21;
  double t24 = 1/t22/t21;
  double t27 = -t5*t11+t3*t13;
  double t29 = 4.0*t24*t27*t27;
  double t31 = 1/t8*t16;
  double t34 = -t31*t1+x20-x30;
  double t38 = -t1*t13+t5*t9;
  double t40 = 4.0*t24*t38*t38;
  double t42 = 1/t22;
  double t43 = 2.0*t42*t38;
  double t47 = t1*t11-t3*t9;
  double t49 = 4.0*t24*t47*t47;
  double t51 = 2.0*t42*t47;
  double t56 = -t31*t3+x21-x31;
  double t58 = 2.0*t42*t27;
  double t66 = -t31*t5+x22-x32;
  double t76 = t8/t16;
  double t80 = t31*t1-t76*t9+x10-2.0*x20+x30;
  double t83 = -x32+x12;
  double t86 = x31-x11;
  double t94 = -t76*t11+t31*t3+x11-2.0*x21+x31;
  double t99 = x10-x30;
  double t107 = -t76*t13+t31*t5+x12-2.0*x22+x32;
  double t116 = t76*t9-x10+x20;
  double t125 = t76*t11-x11+x21;
  double t134 = t76*t13-x12+x22;
      unknown[0][0] = -4.0*t51*t11+4.0*t43*t13-2.0*t29*t34-2.0*t40*t34-2.0*t49*
t34;
      unknown[0][1] = -4.0*t58*t13-2.0*t29*t56-2.0*t40*t56-2.0*t49*t56+4.0*t51*
t9;
      unknown[0][2] = 4.0*t58*t11-2.0*t29*t66-2.0*t40*t66-4.0*t43*t9-2.0*t49*
t66;
      unknown[0][3] = -2.0*t29*t80-2.0*t40*t80+4.0*t43*t83-2.0*t49*t80+4.0*t51*
t86;
      unknown[0][4] = -2.0*t29*t94-2.0*t40*t94-2.0*t49*t94+4.0*t51*t99-4.0*t58*
t83;
      unknown[0][5] = -2.0*t29*t107-2.0*t40*t107-2.0*t49*t107-4.0*t43*t99-4.0*
t58*t86;
      unknown[0][6] = -2.0*t29*t116-2.0*t40*t116-2.0*t49*t116-4.0*t51*t3+4.0*
t43*t5;
      unknown[0][7] = 4.0*t51*t1-2.0*t29*t125-2.0*t40*t125-2.0*t49*t125-4.0*t58
*t5;
      unknown[0][8] = -4.0*t43*t1-2.0*t29*t134-2.0*t40*t134-2.0*t49*t134+4.0*
t58*t3;
      t1 = x20-x10;
      t2 = t1*t1;
      t3 = x21-x11;
      t4 = t3*t3;
      t5 = x22-x12;
      t6 = t5*t5;
      t8 = sqrt(t2+t4+t6);
      t9 = x30-x20;
      t10 = t9*t9;
      t11 = x31-x21;
      t12 = t11*t11;
      t13 = x32-x22;
      t14 = t13*t13;
      t16 = sqrt(t10+t12+t14);
      t21 = t1*t9+t3*t11+t5*t13+t8*t16;
      t22 = t21*t21;
      t24 = 1/t22/t21;
      t27 = -t5*t11+t3*t13;
      t29 = 4.0*t24*t27*t27;
      t31 = 1/t8*t16;
      t34 = -t31*t1+x20-x30;
      t38 = -t1*t13+t5*t9;
      t40 = 4.0*t24*t38*t38;
      t42 = 1/t22;
      t43 = 2.0*t42*t38;
      t47 = t1*t11-t3*t9;
      t49 = 4.0*t24*t47*t47;
      t51 = 2.0*t42*t47;
      t56 = -t31*t3+x21-x31;
      t58 = 2.0*t42*t27;
      t66 = -t31*t5+x22-x32;
      t76 = t8/t16;
      t80 = t31*t1-t76*t9+x10-2.0*x20+x30;
      t83 = -x32+x12;
      t86 = x31-x11;
      t94 = -t76*t11+t31*t3+x11-2.0*x21+x31;
      t99 = x10-x30;
      t107 = -t76*t13+t31*t5+x12-2.0*x22+x32;
      t116 = t76*t9-x10+x20;
      t125 = t76*t11-x11+x21;
      t134 = t76*t13-x12+x22;
      unknown[0][0] = -4.0*t51*t11+4.0*t43*t13-2.0*t29*t34-2.0*t40*t34-2.0*t49*
t34;
      unknown[0][1] = -4.0*t58*t13-2.0*t29*t56-2.0*t40*t56-2.0*t49*t56+4.0*t51*
t9;
      unknown[0][2] = 4.0*t58*t11-2.0*t29*t66-2.0*t40*t66-4.0*t43*t9-2.0*t49*
t66;
      unknown[0][3] = -2.0*t29*t80-2.0*t40*t80+4.0*t43*t83-2.0*t49*t80+4.0*t51*
t86;
      unknown[0][4] = -2.0*t29*t94-2.0*t40*t94-2.0*t49*t94+4.0*t51*t99-4.0*t58*
t83;
      unknown[0][5] = -2.0*t29*t107-2.0*t40*t107-2.0*t49*t107-4.0*t43*t99-4.0*
t58*t86;
      unknown[0][6] = -2.0*t29*t116-2.0*t40*t116-2.0*t49*t116-4.0*t51*t3+4.0*
t43*t5;
      unknown[0][7] = 4.0*t51*t1-2.0*t29*t125-2.0*t40*t125-2.0*t49*t125-4.0*t58
*t5;
      unknown[0][8] = -4.0*t43*t1-2.0*t29*t134-2.0*t40*t134-2.0*t49*t134+4.0*
t58*t3;
      t1 = x20-x10;
      t2 = t1*t1;
      t3 = x21-x11;
      t4 = t3*t3;
      t5 = x22-x12;
      t6 = t5*t5;
      t8 = sqrt(t2+t4+t6);
      t9 = x30-x20;
      t10 = t9*t9;
      t11 = x31-x21;
      t12 = t11*t11;
      t13 = x32-x22;
      t14 = t13*t13;
      t16 = sqrt(t10+t12+t14);
      t21 = t9*t1+t11*t3+t13*t5+t16*t8;
      t22 = t21*t21;
      t24 = 1/t22/t21;
      t27 = -t11*t5+t13*t3;
      t29 = 4.0*t27*t27*t24;
      t31 = t16/t8;
      t34 = -t1*t31+x20-x30;
      t38 = -t13*t1+t9*t5;
      t40 = 4.0*t38*t38*t24;
      t42 = 1/t22;
      t43 = 2.0*t38*t42;
      t47 = t11*t1-t9*t3;
      t49 = 4.0*t47*t47*t24;
      t51 = 2.0*t47*t42;
      t56 = -t3*t31+x21-x31;
      t58 = 2.0*t27*t42;
      t66 = -t5*t31+x22-x32;
      t76 = 1/t16*t8;
      t80 = t1*t31-t9*t76+x10-2.0*x20+x30;
      t83 = -x32+x12;
      t86 = x31-x11;
      t94 = -t11*t76+t3*t31+x11-2.0*x21+x31;
      t99 = x10-x30;
      t107 = -t13*t76+t5*t31+x12-2.0*x22+x32;
      t116 = t9*t76-x10+x20;
      t125 = t11*t76-x11+x21;
      t134 = t13*t76-x12+x22;
      unknown[0][0] = -4.0*t11*t51+4.0*t13*t43-2.0*t34*t29-2.0*t34*t40-2.0*t34*
t49;
      unknown[0][1] = -4.0*t13*t58-2.0*t56*t29-2.0*t56*t40-2.0*t56*t49+4.0*t9*
t51;
      unknown[0][2] = 4.0*t11*t58-2.0*t66*t29-2.0*t66*t40-4.0*t9*t43-2.0*t66*
t49;
      unknown[0][3] = -2.0*t80*t29-2.0*t80*t40+4.0*t83*t43-2.0*t80*t49+4.0*t86*
t51;
      unknown[0][4] = -2.0*t94*t29-2.0*t94*t40-2.0*t94*t49+4.0*t99*t51-4.0*t83*
t58;
      unknown[0][5] = -2.0*t107*t29-2.0*t107*t40-2.0*t107*t49-4.0*t99*t43-4.0*
t86*t58;
      unknown[0][6] = -2.0*t116*t29-2.0*t116*t40-2.0*t116*t49-4.0*t3*t51+4.0*t5
*t43;
      unknown[0][7] = 4.0*t1*t51-2.0*t125*t29-2.0*t125*t40-2.0*t125*t49-4.0*t5*
t58;
      unknown[0][8] = -4.0*t1*t43-2.0*t134*t29-2.0*t134*t40-2.0*t134*t49+4.0*t3
*t58;
      t1 = x20-x10;
      t2 = t1*t1;
      t3 = x21-x11;
      t4 = t3*t3;
      t5 = x22-x12;
      t6 = t5*t5;
      t8 = sqrt(t2+t4+t6);
      t9 = x30-x20;
      t10 = t9*t9;
      t11 = x31-x21;
      t12 = t11*t11;
      t13 = x32-x22;
      t14 = t13*t13;
      t16 = sqrt(t10+t12+t14);
      t21 = t9*t1+t11*t3+t13*t5+t16*t8;
      t22 = t21*t21;
      t24 = 1/t22/t21;
      t27 = -t11*t5+t13*t3;
      t29 = 4.0*t27*t27*t24;
      t31 = t16/t8;
      t34 = -t1*t31+x20-x30;
      t38 = -t13*t1+t9*t5;
      t40 = 4.0*t38*t38*t24;
      t42 = 1/t22;
      t43 = 2.0*t38*t42;
      t47 = t11*t1-t9*t3;
      t49 = 4.0*t47*t47*t24;
      t51 = 2.0*t47*t42;
      t56 = -t3*t31+x21-x31;
      t58 = 2.0*t27*t42;
      t66 = -t5*t31+x22-x32;
      t76 = 1/t16*t8;
      t80 = t1*t31-t9*t76+x10-2.0*x20+x30;
      t83 = -x32+x12;
      t86 = x31-x11;
      t94 = -t11*t76+t3*t31+x11-2.0*x21+x31;
      t99 = x10-x30;
      t107 = -t13*t76+t5*t31+x12-2.0*x22+x32;
      t116 = t9*t76-x10+x20;
      t125 = t11*t76-x11+x21;
      t134 = t13*t76-x12+x22;
      unknown[0][0] = -4.0*t11*t51+4.0*t13*t43-2.0*t34*t29-2.0*t34*t40-2.0*t34*
t49;
      unknown[0][1] = -4.0*t13*t58-2.0*t56*t29-2.0*t56*t40-2.0*t56*t49+4.0*t9*
t51;
      unknown[0][2] = 4.0*t11*t58-2.0*t66*t29-2.0*t66*t40-4.0*t9*t43-2.0*t66*
t49;
      unknown[0][3] = -2.0*t80*t29-2.0*t80*t40+4.0*t83*t43-2.0*t80*t49+4.0*t86*
t51;
      unknown[0][4] = -2.0*t94*t29-2.0*t94*t40-2.0*t94*t49+4.0*t99*t51-4.0*t83*
t58;
      unknown[0][5] = -2.0*t107*t29-2.0*t107*t40-2.0*t107*t49-4.0*t99*t43-4.0*
t86*t58;
      unknown[0][6] = -2.0*t116*t29-2.0*t116*t40-2.0*t116*t49-4.0*t3*t51+4.0*t5
*t43;
      unknown[0][7] = 4.0*t1*t51-2.0*t125*t29-2.0*t125*t40-2.0*t125*t49-4.0*t5*
t58;
      unknown[0][8] = -4.0*t1*t43-2.0*t134*t29-2.0*t134*t40-2.0*t134*t49+4.0*t3
*t58;
      t1 = x20-x10;
      t2 = t1*t1;
      t3 = x21-x11;
      t4 = t3*t3;
      t5 = x22-x12;
      t6 = t5*t5;
      t8 = sqrt(t2+t4+t6);
      t9 = x30-x20;
      t10 = t9*t9;
      t11 = x31-x21;
      t12 = t11*t11;
      t13 = x32-x22;
      t14 = t13*t13;
      t16 = sqrt(t10+t12+t14);
      t21 = t1*t9+t3*t11+t5*t13+t8*t16;
      t22 = t21*t21;
      t24 = 1/t22/t21;
      t27 = -t5*t11+t3*t13;
      t29 = 4.0*t24*t27*t27;
      t31 = 1/t8*t16;
      t34 = -t31*t1+x20-x30;
      t38 = -t1*t13+t5*t9;
      t40 = 4.0*t24*t38*t38;
      t42 = 1/t22;
      t43 = 2.0*t42*t38;
      t47 = t1*t11-t3*t9;
      t49 = 4.0*t24*t47*t47;
      t51 = 2.0*t42*t47;
      t56 = -t31*t3+x21-x31;
      t58 = 2.0*t42*t27;
      t66 = -t31*t5+x22-x32;
      t76 = t8/t16;
      t80 = t31*t1-t76*t9+x10-2.0*x20+x30;
      t83 = -x32+x12;
      t86 = x31-x11;
      t94 = -t76*t11+t31*t3+x11-2.0*x21+x31;
      t99 = x10-x30;
      t107 = -t76*t13+t31*t5+x12-2.0*x22+x32;
      t116 = t76*t9-x10+x20;
      t125 = t76*t11-x11+x21;
      t134 = t76*t13-x12+x22;
      unknown[0][0] = -4.0*t51*t11+4.0*t43*t13-2.0*t29*t34-2.0*t40*t34-2.0*t49*
t34;
      unknown[0][1] = -4.0*t58*t13-2.0*t29*t56-2.0*t40*t56-2.0*t49*t56+4.0*t51*
t9;
      unknown[0][2] = 4.0*t58*t11-2.0*t29*t66-2.0*t40*t66-4.0*t43*t9-2.0*t49*
t66;
      unknown[0][3] = -2.0*t29*t80-2.0*t40*t80+4.0*t43*t83-2.0*t49*t80+4.0*t51*
t86;
      unknown[0][4] = -2.0*t29*t94-2.0*t40*t94-2.0*t49*t94+4.0*t51*t99-4.0*t58*
t83;
      unknown[0][5] = -2.0*t29*t107-2.0*t40*t107-2.0*t49*t107-4.0*t43*t99-4.0*
t58*t86;
      unknown[0][6] = -2.0*t29*t116-2.0*t40*t116-2.0*t49*t116-4.0*t51*t3+4.0*
t43*t5;
      unknown[0][7] = 4.0*t51*t1-2.0*t29*t125-2.0*t40*t125-2.0*t49*t125-4.0*t58
*t5;
      unknown[0][8] = -4.0*t43*t1-2.0*t29*t134-2.0*t40*t134-2.0*t49*t134+4.0*
t58*t3;
      t1 = x20-x10;
      t2 = t1*t1;
      t3 = x21-x11;
      t4 = t3*t3;
      t5 = x22-x12;
      t6 = t5*t5;
      t8 = sqrt(t2+t4+t6);
      t9 = x30-x20;
      t10 = t9*t9;
      t11 = x31-x21;
      t12 = t11*t11;
      t13 = x32-x22;
      t14 = t13*t13;
      t16 = sqrt(t10+t12+t14);
      t21 = t9*t1+t11*t3+t13*t5+t16*t8;
      t22 = t21*t21;
      t24 = 1/t22/t21;
      t27 = -t11*t5+t13*t3;
      t29 = 4.0*t27*t27*t24;
      t31 = t16/t8;
      t34 = -t1*t31+x20-x30;
      t38 = -t13*t1+t9*t5;
      t40 = 4.0*t38*t38*t24;
      t42 = 1/t22;
      t43 = 2.0*t38*t42;
      t47 = t11*t1-t9*t3;
      t49 = 4.0*t47*t47*t24;
      t51 = 2.0*t47*t42;
      t56 = -t3*t31+x21-x31;
      t58 = 2.0*t27*t42;
      t66 = -t5*t31+x22-x32;
      t76 = 1/t16*t8;
      t80 = t1*t31-t9*t76+x10-2.0*x20+x30;
      t83 = -x32+x12;
      t86 = x31-x11;
      t94 = -t11*t76+t3*t31+x11-2.0*x21+x31;
      t99 = x10-x30;
      t107 = -t13*t76+t5*t31+x12-2.0*x22+x32;
      t116 = t9*t76-x10+x20;
      t125 = t11*t76-x11+x21;
      t134 = t13*t76-x12+x22;
      unknown[0][0] = -4.0*t11*t51+4.0*t13*t43-2.0*t34*t29-2.0*t34*t40-2.0*t34*
t49;
      unknown[0][1] = -4.0*t13*t58-2.0*t56*t29-2.0*t56*t40-2.0*t56*t49+4.0*t9*
t51;
      unknown[0][2] = 4.0*t11*t58-2.0*t66*t29-2.0*t66*t40-4.0*t9*t43-2.0*t66*
t49;
      unknown[0][3] = -2.0*t80*t29-2.0*t80*t40+4.0*t83*t43-2.0*t80*t49+4.0*t86*
t51;
      unknown[0][4] = -2.0*t94*t29-2.0*t94*t40-2.0*t94*t49+4.0*t99*t51-4.0*t83*
t58;
      unknown[0][5] = -2.0*t107*t29-2.0*t107*t40-2.0*t107*t49-4.0*t99*t43-4.0*
t86*t58;
      unknown[0][6] = -2.0*t116*t29-2.0*t116*t40-2.0*t116*t49-4.0*t3*t51+4.0*t5
*t43;
      unknown[0][7] = 4.0*t1*t51-2.0*t125*t29-2.0*t125*t40-2.0*t125*t49-4.0*t5*
t58;
      unknown[0][8] = -4.0*t1*t43-2.0*t134*t29-2.0*t134*t40-2.0*t134*t49+4.0*t3
*t58;
      t1 = x20-x10;
      t2 = t1*t1;
      t3 = x21-x11;
      t4 = t3*t3;
      t5 = x22-x12;
      t6 = t5*t5;
      t8 = sqrt(t2+t4+t6);
      t9 = x30-x20;
      t10 = t9*t9;
      t11 = x31-x21;
      t12 = t11*t11;
      t13 = x32-x22;
      t14 = t13*t13;
      t16 = sqrt(t10+t12+t14);
      t21 = t1*t9+t3*t11+t5*t13+t8*t16;
      t22 = t21*t21;
      t24 = 1/t22/t21;
      t27 = -t5*t11+t3*t13;
      t29 = 4.0*t24*t27*t27;
      t31 = 1/t8*t16;
      t34 = -t31*t1+x20-x30;
      t38 = -t1*t13+t5*t9;
      t40 = 4.0*t24*t38*t38;
      t42 = 1/t22;
      t43 = 2.0*t42*t38;
      t47 = t1*t11-t3*t9;
      t49 = 4.0*t24*t47*t47;
      t51 = 2.0*t42*t47;
      t56 = -t31*t3+x21-x31;
      t58 = 2.0*t42*t27;
      t66 = -t31*t5+x22-x32;
      t76 = t8/t16;
      t80 = t31*t1-t76*t9+x10-2.0*x20+x30;
      t83 = -x32+x12;
      t86 = x31-x11;
      t94 = -t76*t11+t31*t3+x11-2.0*x21+x31;
      t99 = x10-x30;
      t107 = -t76*t13+t31*t5+x12-2.0*x22+x32;
      t116 = t76*t9-x10+x20;
      t125 = t76*t11-x11+x21;
      t134 = t76*t13-x12+x22;
      unknown[0][0] = -4.0*t51*t11+4.0*t43*t13-2.0*t29*t34-2.0*t40*t34-2.0*t49*
t34;
      unknown[0][1] = -4.0*t58*t13-2.0*t29*t56-2.0*t40*t56-2.0*t49*t56+4.0*t51*
t9;
      unknown[0][2] = 4.0*t58*t11-2.0*t29*t66-2.0*t40*t66-4.0*t43*t9-2.0*t49*
t66;
      unknown[0][3] = -2.0*t29*t80-2.0*t40*t80+4.0*t43*t83-2.0*t49*t80+4.0*t51*
t86;
      unknown[0][4] = -2.0*t29*t94-2.0*t40*t94-2.0*t49*t94+4.0*t51*t99-4.0*t58*
t83;
      unknown[0][5] = -2.0*t29*t107-2.0*t40*t107-2.0*t49*t107-4.0*t43*t99-4.0*
t58*t86;
      unknown[0][6] = -2.0*t29*t116-2.0*t40*t116-2.0*t49*t116-4.0*t51*t3+4.0*
t43*t5;
      unknown[0][7] = 4.0*t51*t1-2.0*t29*t125-2.0*t40*t125-2.0*t49*t125-4.0*t58
*t5;
      unknown[0][8] = -4.0*t43*t1-2.0*t29*t134-2.0*t40*t134-2.0*t49*t134+4.0*
t58*t3;
      t1 = x20-x10;
      t2 = t1*t1;
      t3 = x21-x11;
      t4 = t3*t3;
      t5 = x22-x12;
      t6 = t5*t5;
      t8 = sqrt(t2+t4+t6);
      t9 = x30-x20;
      t10 = t9*t9;
      t11 = x31-x21;
      t12 = t11*t11;
      t13 = x32-x22;
      t14 = t13*t13;
      t16 = sqrt(t10+t12+t14);
      t21 = t1*t9+t3*t11+t5*t13+t8*t16;
      t22 = t21*t21;
      t24 = 1/t22/t21;
      t27 = -t5*t11+t3*t13;
      t29 = 4.0*t24*t27*t27;
      t31 = 1/t8*t16;
      t34 = -t31*t1+x20-x30;
      t38 = -t1*t13+t5*t9;
      t40 = 4.0*t24*t38*t38;
      t42 = 1/t22;
      t43 = 2.0*t42*t38;
      t47 = t1*t11-t3*t9;
      t49 = 4.0*t24*t47*t47;
      t51 = 2.0*t42*t47;
      t56 = -t31*t3+x21-x31;
      t58 = 2.0*t42*t27;
      t66 = -t31*t5+x22-x32;
      t76 = t8/t16;
      t80 = t31*t1-t76*t9+x10-2.0*x20+x30;
      t83 = -x32+x12;
      t86 = x31-x11;
      t94 = -t76*t11+t31*t3+x11-2.0*x21+x31;
      t99 = x10-x30;
      t107 = -t76*t13+t31*t5+x12-2.0*x22+x32;
      t116 = t76*t9-x10+x20;
      t125 = t76*t11-x11+x21;
      t134 = t76*t13-x12+x22;
      unknown[0][0] = -4.0*t51*t11+4.0*t43*t13-2.0*t29*t34-2.0*t40*t34-2.0*t49*
t34;
      unknown[0][1] = -4.0*t58*t13-2.0*t29*t56-2.0*t40*t56-2.0*t49*t56+4.0*t51*
t9;
      unknown[0][2] = 4.0*t58*t11-2.0*t29*t66-2.0*t40*t66-4.0*t43*t9-2.0*t49*
t66;
      unknown[0][3] = -2.0*t29*t80-2.0*t40*t80+4.0*t43*t83-2.0*t49*t80+4.0*t51*
t86;
      unknown[0][4] = -2.0*t29*t94-2.0*t40*t94-2.0*t49*t94+4.0*t51*t99-4.0*t58*
t83;
      unknown[0][5] = -2.0*t29*t107-2.0*t40*t107-2.0*t49*t107-4.0*t43*t99-4.0*
t58*t86;
      unknown[0][6] = -2.0*t29*t116-2.0*t40*t116-2.0*t49*t116-4.0*t51*t3+4.0*
t43*t5;
      unknown[0][7] = 4.0*t51*t1-2.0*t29*t125-2.0*t40*t125-2.0*t49*t125-4.0*t58
*t5;
      unknown[0][8] = -4.0*t43*t1-2.0*t29*t134-2.0*t40*t134-2.0*t49*t134+4.0*
t58*t3;
      t1 = x20-x10;
      t2 = t1*t1;
      t3 = x21-x11;
      t4 = t3*t3;
      t5 = x22-x12;
      t6 = t5*t5;
      t8 = sqrt(t2+t4+t6);
      t9 = x30-x20;
      t10 = t9*t9;
      t11 = x31-x21;
      t12 = t11*t11;
      t13 = x32-x22;
      t14 = t13*t13;
      t16 = sqrt(t10+t12+t14);
      t21 = t9*t1+t11*t3+t13*t5+t16*t8;
      t22 = t21*t21;
      t24 = 1/t22/t21;
      t27 = -t11*t5+t13*t3;
      t29 = 4.0*t27*t27*t24;
      t31 = t16/t8;
      t34 = -t1*t31+x20-x30;
      t38 = -t13*t1+t9*t5;
      t40 = 4.0*t38*t38*t24;
      t42 = 1/t22;
      t43 = 2.0*t38*t42;
      t47 = t11*t1-t9*t3;
      t49 = 4.0*t47*t47*t24;
      t51 = 2.0*t47*t42;
      t56 = -t3*t31+x21-x31;
      t58 = 2.0*t27*t42;
      t66 = -t5*t31+x22-x32;
      t76 = 1/t16*t8;
      t80 = t1*t31-t9*t76+x10-2.0*x20+x30;
      t83 = -x32+x12;
      t86 = x31-x11;
      t94 = -t11*t76+t3*t31+x11-2.0*x21+x31;
      t99 = x10-x30;
      t107 = -t13*t76+t5*t31+x12-2.0*x22+x32;
      t116 = t9*t76-x10+x20;
      t125 = t11*t76-x11+x21;
      t134 = t13*t76-x12+x22;
      unknown[0][0] = -4.0*t11*t51+4.0*t13*t43-2.0*t34*t29-2.0*t34*t40-2.0*t34*
t49;
      unknown[0][1] = -4.0*t13*t58-2.0*t56*t29-2.0*t56*t40-2.0*t56*t49+4.0*t9*
t51;
      unknown[0][2] = 4.0*t11*t58-2.0*t66*t29-2.0*t66*t40-4.0*t9*t43-2.0*t66*
t49;
      unknown[0][3] = -2.0*t80*t29-2.0*t80*t40+4.0*t83*t43-2.0*t80*t49+4.0*t86*
t51;
      unknown[0][4] = -2.0*t94*t29-2.0*t94*t40-2.0*t94*t49+4.0*t99*t51-4.0*t83*
t58;
      unknown[0][5] = -2.0*t107*t29-2.0*t107*t40-2.0*t107*t49-4.0*t99*t43-4.0*
t86*t58;
      unknown[0][6] = -2.0*t116*t29-2.0*t116*t40-2.0*t116*t49-4.0*t3*t51+4.0*t5
*t43;
      unknown[0][7] = 4.0*t1*t51-2.0*t125*t29-2.0*t125*t40-2.0*t125*t49-4.0*t5*
t58;
      unknown[0][8] = -4.0*t1*t43-2.0*t134*t29-2.0*t134*t40-2.0*t134*t49+4.0*t3
*t58;
      t1 = x20-x10;
      t2 = t1*t1;
      t3 = x21-x11;
      t4 = t3*t3;
      t5 = x22-x12;
      t6 = t5*t5;
      t8 = sqrt(t2+t4+t6);
      t9 = x30-x20;
      t10 = t9*t9;
      t11 = x31-x21;
      t12 = t11*t11;
      t13 = x32-x22;
      t14 = t13*t13;
      t16 = sqrt(t10+t12+t14);
      t21 = t1*t9+t3*t11+t5*t13+t8*t16;
      t22 = t21*t21;
      t24 = 1/t22/t21;
      t27 = -t5*t11+t3*t13;
      t29 = 4.0*t24*t27*t27;
      t31 = 1/t8*t16;
      t34 = -t31*t1+x20-x30;
      t38 = -t1*t13+t5*t9;
      t40 = 4.0*t24*t38*t38;
      t42 = 1/t22;
      t43 = 2.0*t42*t38;
      t47 = t1*t11-t3*t9;
      t49 = 4.0*t24*t47*t47;
      t51 = 2.0*t42*t47;
      t56 = -t31*t3+x21-x31;
      t58 = 2.0*t42*t27;
      t66 = -t31*t5+x22-x32;
      t76 = t8/t16;
      t80 = t31*t1-t76*t9+x10-2.0*x20+x30;
      t83 = -x32+x12;
      t86 = x31-x11;
      t94 = -t76*t11+t31*t3+x11-2.0*x21+x31;
      t99 = x10-x30;
      t107 = -t76*t13+t31*t5+x12-2.0*x22+x32;
      t116 = t76*t9-x10+x20;
      t125 = t76*t11-x11+x21;
      t134 = t76*t13-x12+x22;
      unknown[0][0] = -4.0*t51*t11+4.0*t43*t13-2.0*t29*t34-2.0*t40*t34-2.0*t49*
t34;
      unknown[0][1] = -4.0*t58*t13-2.0*t29*t56-2.0*t40*t56-2.0*t49*t56+4.0*t51*
t9;
      unknown[0][2] = 4.0*t58*t11-2.0*t29*t66-2.0*t40*t66-4.0*t43*t9-2.0*t49*
t66;
      unknown[0][3] = -2.0*t29*t80-2.0*t40*t80+4.0*t43*t83-2.0*t49*t80+4.0*t51*
t86;
      unknown[0][4] = -2.0*t29*t94-2.0*t40*t94-2.0*t49*t94+4.0*t51*t99-4.0*t58*
t83;
      unknown[0][5] = -2.0*t29*t107-2.0*t40*t107-2.0*t49*t107-4.0*t43*t99-4.0*
t58*t86;
      unknown[0][6] = -2.0*t29*t116-2.0*t40*t116-2.0*t49*t116-4.0*t51*t3+4.0*
t43*t5;
      unknown[0][7] = 4.0*t51*t1-2.0*t29*t125-2.0*t40*t125-2.0*t49*t125-4.0*t58
*t5;
      unknown[0][8] = -4.0*t43*t1-2.0*t29*t134-2.0*t40*t134-2.0*t49*t134+4.0*
t58*t3;
      t1 = x20-x10;
      t2 = t1*t1;
      t3 = x21-x11;
      t4 = t3*t3;
      t5 = x22-x12;
      t6 = t5*t5;
      t8 = sqrt(t2+t4+t6);
      t9 = x30-x20;
      t10 = t9*t9;
      t11 = x31-x21;
      t12 = t11*t11;
      t13 = x32-x22;
      t14 = t13*t13;
      t16 = sqrt(t10+t12+t14);
      t21 = t9*t1+t11*t3+t13*t5+t16*t8;
      t22 = t21*t21;
      t24 = 1/t22/t21;
      t27 = -t11*t5+t13*t3;
      t29 = 4.0*t27*t27*t24;
      t31 = t16/t8;
      t34 = -t1*t31+x20-x30;
      t38 = -t13*t1+t9*t5;
      t40 = 4.0*t38*t38*t24;
      t42 = 1/t22;
      t43 = 2.0*t38*t42;
      t47 = t11*t1-t9*t3;
      t49 = 4.0*t47*t47*t24;
      t51 = 2.0*t47*t42;
      t56 = -t3*t31+x21-x31;
      t58 = 2.0*t27*t42;
      t66 = -t5*t31+x22-x32;
      t76 = 1/t16*t8;
      t80 = t1*t31-t9*t76+x10-2.0*x20+x30;
      t83 = -x32+x12;
      t86 = x31-x11;
      t94 = -t11*t76+t3*t31+x11-2.0*x21+x31;
      t99 = x10-x30;
      t107 = -t13*t76+t5*t31+x12-2.0*x22+x32;
      t116 = t9*t76-x10+x20;
      t125 = t11*t76-x11+x21;
      t134 = t13*t76-x12+x22;
      unknown[0][0] = -4.0*t11*t51+4.0*t13*t43-2.0*t34*t29-2.0*t34*t40-2.0*t34*
t49;
      unknown[0][1] = -4.0*t13*t58-2.0*t56*t29-2.0*t56*t40-2.0*t56*t49+4.0*t9*
t51;
      unknown[0][2] = 4.0*t11*t58-2.0*t66*t29-2.0*t66*t40-4.0*t9*t43-2.0*t66*
t49;
      unknown[0][3] = -2.0*t80*t29-2.0*t80*t40+4.0*t83*t43-2.0*t80*t49+4.0*t86*
t51;
      unknown[0][4] = -2.0*t94*t29-2.0*t94*t40-2.0*t94*t49+4.0*t99*t51-4.0*t83*
t58;
      unknown[0][5] = -2.0*t107*t29-2.0*t107*t40-2.0*t107*t49-4.0*t99*t43-4.0*
t86*t58;
      unknown[0][6] = -2.0*t116*t29-2.0*t116*t40-2.0*t116*t49-4.0*t3*t51+4.0*t5
*t43;
      unknown[0][7] = 4.0*t1*t51-2.0*t125*t29-2.0*t125*t40-2.0*t125*t49-4.0*t5*
t58;
      unknown[0][8] = -4.0*t1*t43-2.0*t134*t29-2.0*t134*t40-2.0*t134*t49+4.0*t3
*t58;
      t1 = x20-x10;
      t2 = t1*t1;
      t3 = x21-x11;
      t4 = t3*t3;
      t5 = x22-x12;
      t6 = t5*t5;
      t8 = sqrt(t2+t4+t6);
      t9 = x30-x20;
      t10 = t9*t9;
      t11 = x31-x21;
      t12 = t11*t11;
      t13 = x32-x22;
      t14 = t13*t13;
      t16 = sqrt(t10+t12+t14);
      t21 = t9*t1+t11*t3+t13*t5+t16*t8;
      t22 = t21*t21;
      t24 = 1/t22/t21;
      t27 = -t11*t5+t13*t3;
      t29 = 4.0*t27*t27*t24;
      t31 = t16/t8;
      t34 = -t1*t31+x20-x30;
      t38 = -t13*t1+t9*t5;
      t40 = 4.0*t38*t38*t24;
      t42 = 1/t22;
      t43 = 2.0*t38*t42;
      t47 = t11*t1-t9*t3;
      t49 = 4.0*t47*t47*t24;
      t51 = 2.0*t47*t42;
      t56 = -t3*t31+x21-x31;
      t58 = 2.0*t27*t42;
      t66 = -t5*t31+x22-x32;
      t76 = 1/t16*t8;
      t80 = t1*t31-t9*t76+x10-2.0*x20+x30;
      t83 = -x32+x12;
      t86 = x31-x11;
      t94 = -t11*t76+t3*t31+x11-2.0*x21+x31;
      t99 = x10-x30;
      t107 = -t13*t76+t5*t31+x12-2.0*x22+x32;
      t116 = t9*t76-x10+x20;
      t125 = t11*t76-x11+x21;
      t134 = t13*t76-x12+x22;
      unknown[0][0] = -4.0*t11*t51+4.0*t13*t43-2.0*t34*t29-2.0*t34*t40-2.0*t34*
t49;
      unknown[0][1] = -4.0*t13*t58-2.0*t56*t29-2.0*t56*t40-2.0*t56*t49+4.0*t9*
t51;
      unknown[0][2] = 4.0*t11*t58-2.0*t66*t29-2.0*t66*t40-4.0*t9*t43-2.0*t66*
t49;
      unknown[0][3] = -2.0*t80*t29-2.0*t80*t40+4.0*t83*t43-2.0*t80*t49+4.0*t86*
t51;
      unknown[0][4] = -2.0*t94*t29-2.0*t94*t40-2.0*t94*t49+4.0*t99*t51-4.0*t83*
t58;
      unknown[0][5] = -2.0*t107*t29-2.0*t107*t40-2.0*t107*t49-4.0*t99*t43-4.0*
t86*t58;
      unknown[0][6] = -2.0*t116*t29-2.0*t116*t40-2.0*t116*t49-4.0*t3*t51+4.0*t5
*t43;
      unknown[0][7] = 4.0*t1*t51-2.0*t125*t29-2.0*t125*t40-2.0*t125*t49-4.0*t5*
t58;
      unknown[0][8] = -4.0*t1*t43-2.0*t134*t29-2.0*t134*t40-2.0*t134*t49+4.0*t3
*t58;
      t1 = x20-x10;
      t2 = t1*t1;
      t3 = x21-x11;
      t4 = t3*t3;
      t5 = x22-x12;
      t6 = t5*t5;
      t8 = sqrt(t2+t4+t6);
      t9 = x30-x20;
      t10 = t9*t9;
      t11 = x31-x21;
      t12 = t11*t11;
      t13 = x32-x22;
      t14 = t13*t13;
      t16 = sqrt(t10+t12+t14);
      t21 = t1*t9+t3*t11+t5*t13+t8*t16;
      t22 = t21*t21;
      t24 = 1/t22/t21;
      t27 = -t5*t11+t3*t13;
      t29 = 4.0*t24*t27*t27;
      t31 = 1/t8*t16;
      t34 = -t31*t1+x20-x30;
      t38 = -t1*t13+t5*t9;
      t40 = 4.0*t24*t38*t38;
      t42 = 1/t22;
      t43 = 2.0*t42*t38;
      t47 = t1*t11-t3*t9;
      t49 = 4.0*t24*t47*t47;
      t51 = 2.0*t42*t47;
      t56 = -t31*t3+x21-x31;
      t58 = 2.0*t42*t27;
      t66 = -t31*t5+x22-x32;
      t76 = t8/t16;
      t80 = t31*t1-t76*t9+x10-2.0*x20+x30;
      t83 = -x32+x12;
      t86 = x31-x11;
      t94 = -t76*t11+t31*t3+x11-2.0*x21+x31;
      t99 = x10-x30;
      t107 = -t76*t13+t31*t5+x12-2.0*x22+x32;
      t116 = t76*t9-x10+x20;
      t125 = t76*t11-x11+x21;
      t134 = t76*t13-x12+x22;
      unknown[0][0] = -4.0*t51*t11+4.0*t43*t13-2.0*t29*t34-2.0*t40*t34-2.0*t49*
t34;
      unknown[0][1] = -4.0*t58*t13-2.0*t29*t56-2.0*t40*t56-2.0*t49*t56+4.0*t51*
t9;
      unknown[0][2] = 4.0*t58*t11-2.0*t29*t66-2.0*t40*t66-4.0*t43*t9-2.0*t49*
t66;
      unknown[0][3] = -2.0*t29*t80-2.0*t40*t80+4.0*t43*t83-2.0*t49*t80+4.0*t51*
t86;
      unknown[0][4] = -2.0*t29*t94-2.0*t40*t94-2.0*t49*t94+4.0*t51*t99-4.0*t58*
t83;
      unknown[0][5] = -2.0*t29*t107-2.0*t40*t107-2.0*t49*t107-4.0*t43*t99-4.0*
t58*t86;
      unknown[0][6] = -2.0*t29*t116-2.0*t40*t116-2.0*t49*t116-4.0*t51*t3+4.0*
t43*t5;
      unknown[0][7] = 4.0*t51*t1-2.0*t29*t125-2.0*t40*t125-2.0*t49*t125-4.0*t58
*t5;
      unknown[0][8] = -4.0*t43*t1-2.0*t29*t134-2.0*t40*t134-2.0*t49*t134+4.0*
t58*t3;
      t1 = x20-x10;
      t2 = t1*t1;
      t3 = x21-x11;
      t4 = t3*t3;
      t5 = x22-x12;
      t6 = t5*t5;
      t8 = sqrt(t2+t4+t6);
      t9 = x30-x20;
      t10 = t9*t9;
      t11 = x31-x21;
      t12 = t11*t11;
      t13 = x32-x22;
      t14 = t13*t13;
      t16 = sqrt(t10+t12+t14);
      t21 = t9*t1+t11*t3+t13*t5+t16*t8;
      t22 = t21*t21;
      t24 = 1/t22/t21;
      t27 = -t11*t5+t13*t3;
      t29 = 4.0*t27*t27*t24;
      t31 = t16/t8;
      t34 = -t1*t31+x20-x30;
      t38 = -t13*t1+t9*t5;
      t40 = 4.0*t38*t38*t24;
      t42 = 1/t22;
      t43 = 2.0*t38*t42;
      t47 = t11*t1-t9*t3;
      t49 = 4.0*t47*t47*t24;
      t51 = 2.0*t47*t42;
      t56 = -t3*t31+x21-x31;
      t58 = 2.0*t27*t42;
      t66 = -t5*t31+x22-x32;
      t76 = 1/t16*t8;
      t80 = t1*t31-t9*t76+x10-2.0*x20+x30;
      t83 = -x32+x12;
      t86 = x31-x11;
      t94 = -t11*t76+t3*t31+x11-2.0*x21+x31;
      t99 = x10-x30;
      t107 = -t13*t76+t5*t31+x12-2.0*x22+x32;
      t116 = t9*t76-x10+x20;
      t125 = t11*t76-x11+x21;
      t134 = t13*t76-x12+x22;
      unknown[0][0] = -4.0*t11*t51+4.0*t13*t43-2.0*t34*t29-2.0*t34*t40-2.0*t34*
t49;
      unknown[0][1] = -4.0*t13*t58-2.0*t56*t29-2.0*t56*t40-2.0*t56*t49+4.0*t9*
t51;
      unknown[0][2] = 4.0*t11*t58-2.0*t66*t29-2.0*t66*t40-4.0*t9*t43-2.0*t66*
t49;
      unknown[0][3] = -2.0*t80*t29-2.0*t80*t40+4.0*t83*t43-2.0*t80*t49+4.0*t86*
t51;
      unknown[0][4] = -2.0*t94*t29-2.0*t94*t40-2.0*t94*t49+4.0*t99*t51-4.0*t83*
t58;
      unknown[0][5] = -2.0*t107*t29-2.0*t107*t40-2.0*t107*t49-4.0*t99*t43-4.0*
t86*t58;
      unknown[0][6] = -2.0*t116*t29-2.0*t116*t40-2.0*t116*t49-4.0*t3*t51+4.0*t5
*t43;
      unknown[0][7] = 4.0*t1*t51-2.0*t125*t29-2.0*t125*t40-2.0*t125*t49-4.0*t5*
t58;
      unknown[0][8] = -4.0*t1*t43-2.0*t134*t29-2.0*t134*t40-2.0*t134*t49+4.0*t3
*t58;
      t1 = x20-x10;
      t2 = t1*t1;
      t3 = x21-x11;
      t4 = t3*t3;
      t5 = x22-x12;
      t6 = t5*t5;
      t8 = sqrt(t2+t4+t6);
      t9 = x30-x20;
      t10 = t9*t9;
      t11 = x31-x21;
      t12 = t11*t11;
      t13 = x32-x22;
      t14 = t13*t13;
      t16 = sqrt(t10+t12+t14);
      t21 = t1*t9+t3*t11+t5*t13+t8*t16;
      t22 = t21*t21;
      t24 = 1/t22/t21;
      t27 = -t5*t11+t3*t13;
      t29 = 4.0*t24*t27*t27;
      t31 = 1/t8*t16;
      t34 = -t31*t1+x20-x30;
      t38 = -t1*t13+t5*t9;
      t40 = 4.0*t24*t38*t38;
      t42 = 1/t22;
      t43 = 2.0*t42*t38;
      t47 = t1*t11-t3*t9;
      t49 = 4.0*t24*t47*t47;
      t51 = 2.0*t42*t47;
      t56 = -t31*t3+x21-x31;
      t58 = 2.0*t42*t27;
      t66 = -t31*t5+x22-x32;
      t76 = t8/t16;
      t80 = t31*t1-t76*t9+x10-2.0*x20+x30;
      t83 = -x32+x12;
      t86 = x31-x11;
      t94 = -t76*t11+t31*t3+x11-2.0*x21+x31;
      t99 = x10-x30;
      t107 = -t76*t13+t31*t5+x12-2.0*x22+x32;
      t116 = t76*t9-x10+x20;
      t125 = t76*t11-x11+x21;
      t134 = t76*t13-x12+x22;
      unknown[0][0] = -4.0*t51*t11+4.0*t43*t13-2.0*t29*t34-2.0*t40*t34-2.0*t49*
t34;
      unknown[0][1] = -4.0*t58*t13-2.0*t29*t56-2.0*t40*t56-2.0*t49*t56+4.0*t51*
t9;
      unknown[0][2] = 4.0*t58*t11-2.0*t29*t66-2.0*t40*t66-4.0*t43*t9-2.0*t49*
t66;
      unknown[0][3] = -2.0*t29*t80-2.0*t40*t80+4.0*t43*t83-2.0*t49*t80+4.0*t51*
t86;
      unknown[0][4] = -2.0*t29*t94-2.0*t40*t94-2.0*t49*t94+4.0*t51*t99-4.0*t58*
t83;
      unknown[0][5] = -2.0*t29*t107-2.0*t40*t107-2.0*t49*t107-4.0*t43*t99-4.0*
t58*t86;
      unknown[0][6] = -2.0*t29*t116-2.0*t40*t116-2.0*t49*t116-4.0*t51*t3+4.0*
t43*t5;
      unknown[0][7] = 4.0*t51*t1-2.0*t29*t125-2.0*t40*t125-2.0*t49*t125-4.0*t58
*t5;
      unknown[0][8] = -4.0*t43*t1-2.0*t29*t134-2.0*t40*t134-2.0*t49*t134+4.0*
t58*t3;
