60
0.7086995216 0.7086995216 0.0
0.6398448820 0.5615203932 0.0
0.5491908691 0.6595715637 0.0
0.6434810157 0.8221221306 0.0
0.5001373699 0.7744908311 0.0
0.3591971513 0.8365194787 0.0
0.3810368729 0.6816934068 0.0
0.4040760086 0.9869742687 0.0
0.7699657030 0.9622256139 0.0
0.2033146221 0.8341276276 0.0
0.2339791415 0.6694868214 0.0
0.2867418376 0.5748027247 0.0
0.1043028726 0.9227488116 0.0
0.4798828343 0.5592907778 0.0
0.0857276869 0.6338042019 0.0
0.3887199467 0.4624539836 0.0
0.1778050220 0.5628180725 0.0
0.9088798553 0.8866616485 0.0
0.7513727753 0.8115734346 0.0
0.5151699704 0.9708825220 0.0
0.2673881496 0.3805769000 0.0
0.0903680647 0.3015042837 0.0
0.4979251383 0.4207642988 0.0
0.2698800518 0.9687180836 0.0
0.0631161420 0.4624987789 0.0
0.6936863713 0.3671396950 0.0
0.8933504483 0.6100526411 0.0
0.3611200998 0.2620817957 0.0
0.0639881847 0.8143088867 0.0
0.8546234655 0.7826217163 0.0
0.5273453040 0.2803744184 0.0
0.7676947412 0.5066137827 0.0
0.9139072642 0.9983838691 0.0
0.2360955071 0.1756256822 0.0
0.8712347508 0.4100513139 0.0
0.6745154997 0.2002117638 0.0
0.4524195150 0.1204615605 0.0
0.7220898056 0.0616940323 0.0
0.7838324508 0.2199558470 0.0
0.9714525325 0.2084776669 0.0
0.3380520668 0.1079288562 0.0
0.9836955433 0.4140483406 0.0
0.9034592747 0.3028551376 0.0
0.1474719532 0.1094559835 0.0
0.9719537135 0.5225198126 0.0
0.9204474824 0.0904118569 0.0
0.5926893850 0.0335472769 0.0
0.9493230440 0.7247702949 0.0
0.4524195150 1.1204615605 0.0
0.7220898056 1.0616940323 0.0
0.3380520668 1.1079288562 0.0
0.1474719532 1.1094559835 0.0
0.9204474824 1.0904118569 0.0
0.5926893850 1.0335472769 0.0
1.1043028726 0.9227488116 0.0
1.0857276869 0.6338042019 0.0
1.0903680647 0.3015042837 0.0
1.0631161420 0.4624987789 0.0
1.0639881847 0.8143088867 0.0
1.1474719532 0.1094559835 0.0
3 2 32 27 
1 32 
1 4 5 7 
54 20 5 3 
4 20 3 
20 24 10 11 
11 12 14 3 
49 51 24 
50 54 19 
6 24 13 29 
7 6 29 
7 21 14 
52 10 
7 12 16 23 
25 17 
14 28 23 
15 25 21 
55 33 19 
18 9 30 
54 6 5 4 
12 17 25 22 34 
21 25 44 34 
14 16 28 
8 51 10 6 
17 15 22 21 
31 43 
56 48 30 1 32 35 45 
31 23 16 
10 11 
19 27 48 
26 28 37 36 
27 1 2 35 
50 18 55 
21 22 41 
42 45 27 32 
31 37 47 38 
36 31 47 
39 36 
43 38 46 40 
39 46 60 
34 
35 43 57 
42 26 39 
22 
56 27 35 58 
60 40 39 
36 37 
59 30 27 56 
8 
9 33 
24 8 
13 
55 
20 4 9 
53 33 18 
48 27 45 
42 
45 
48 
40 46 
