63
0.5414094403 0.5414094403 0.0
0.6272878597 0.7228608971 0.0
0.5689651611 0.4148061098 0.0
0.7500729719 0.7026032928 0.0
0.3805310050 0.4168455379 0.0
0.5230638006 0.2621862939 0.0
0.7988788108 0.8498253337 0.0
0.6367336776 0.1447184720 0.0
0.6754265763 0.0141214272 0.0
0.6495162273 0.9517202623 0.0
0.6303829184 0.8369363058 0.0
0.6581544200 0.5847771540 0.0
0.3868391505 0.6772213917 0.0
0.5043517050 0.6657123142 0.0
0.8390334397 0.6242635068 0.0
0.4827855795 0.1045563988 0.0
0.9471651588 0.7099799096 0.0
0.8058113343 0.9824969293 0.0
0.7735580652 0.1227654961 0.0
0.9189082782 0.1922564875 0.0
0.9193876012 0.8961171541 0.0
0.6217699214 0.3215220110 0.0
0.8186774584 0.2697791338 0.0
0.9248842017 0.3149358185 0.0
0.9972758995 0.5795760658 0.0
0.2886885065 0.4900073420 0.0
0.3695382503 0.8139189501 0.0
0.9682265189 0.0250249018 0.0
0.4049170852 0.9265586128 0.0
0.8401979477 0.0320674470 0.0
0.4008309432 0.2846500278 0.0
0.7369653881 0.4883038920 0.0
0.7120711178 0.2334975927 0.0
0.2589420348 0.6764320465 0.0
0.2943712394 0.3113847168 0.0
0.1765089159 0.3566124719 0.0
0.3215910366 0.1485556662 0.0
0.2531734492 0.9285872728 0.0
0.0785573152 0.7159367416 0.0
0.1927032984 0.7994716858 0.0
0.0298669071 0.8986100583 0.0
0.1552984702 0.5955449107 0.0
0.0890997800 0.5093368570 0.0
0.0211003834 0.6250671861 0.0
0.1972772402 0.1432296475 0.0
0.0568886005 0.3513634695 0.0
0.1983642446 0.2503628494 0.0
0.0297107486 0.1334951435 0.0
0.1129866899 0.0055805544 0.0
0.3677603734 0.0173583470 0.0
0.6754265763 1.0141214272 0.0
0.4827855795 1.1045563988 0.0
0.7735580652 1.1227654961 0.0
0.9682265189 1.0250249018 0.0
0.8401979477 1.0320674470 0.0
0.1972772402 1.1432296475 0.0
0.1129866899 1.0055805544 0.0
0.3677603734 1.0173583470 0.0
1.0298669071 0.8986100583 0.0
1.0890997800 0.5093368570 0.0
1.0211003834 0.6250671861 0.0
1.0568886005 0.3513634695 0.0
1.1129866899 0.0055805544 0.0
13 5 3 
11 4 
32 12 1 5 31 6 
17 11 2 12 15 
1 35 31 3 
22 3 16 8 
21 17 
33 22 6 19 
16 
18 52 
29 27 14 2 4 
15 4 3 32 
34 26 1 14 
11 27 13 
4 12 32 
6 31 9 
59 7 4 
55 53 51 10 
20 23 33 8 
62 24 19 
59 54 55 7 
6 8 33 23 
32 22 33 19 
32 20 
61 62 60 
13 34 42 43 36 
11 38 14 
30 63 
52 58 38 11 
28 
3 5 37 16 
15 12 3 23 24 
23 22 8 19 
13 39 42 26 
5 36 
26 47 35 
31 45 
58 56 27 29 
40 44 42 34 
57 41 39 
57 40 
34 39 44 43 26 
42 44 26 
39 43 42 
37 47 48 50 
48 47 
36 46 48 45 
45 47 46 49 
48 
45 
18 
29 10 
18 
21 59 
18 21 
38 
41 40 
38 29 
54 21 17 
25 
25 
25 20 
28 
Periodic points
59 41 C R
60 43 C R
61 44 C R
62 46 C R
63 49 C R
51 9 C U
52 16 C U
53 19 C U
54 28 C U
55 30 C U
56 45 C U
57 49 C U
58 50 C U
