59
0.2316629666 0.2316629666 0.0
0.0947863972 0.1150301063 0.0
0.2778065785 0.1052295970 0.0
0.4064874811 0.2729857657 0.0
0.1614506718 0.0172172072 0.0
0.4293666387 0.0160433768 0.0
0.0602528104 0.3038797351 0.0
0.1608673700 0.3619158718 0.0
0.5191467590 0.0843678920 0.0
0.6464501851 0.0880459935 0.0
0.1811293192 0.5311513771 0.0
0.3069839354 0.3741880626 0.0
0.6367961686 0.2486794685 0.0
0.7368570016 0.3307707102 0.0
0.6290605535 0.3561456032 0.0
0.3733307239 0.1691083321 0.0
0.4345549834 0.4429564965 0.0
0.4774467750 0.5995179522 0.0
0.9439346624 0.3027468660 0.0
0.0442764884 0.4764191061 0.0
0.3510752033 0.5812020113 0.0
0.1017600554 0.6336348679 0.0
0.2963759956 0.6996595848 0.0
0.1467951308 0.7566922245 0.0
0.6357623119 0.4650143788 0.0
0.8117536163 0.1425501497 0.0
0.7556806024 0.4837638680 0.0
0.5292310595 0.3067321458 0.0
0.6776925453 0.6391449981 0.0
0.0623191559 0.9525517615 0.0
0.0143564670 0.8044178522 0.0
0.1690512404 0.8858750703 0.0
0.7950083069 0.7060473525 0.0
0.8467821646 0.5883073915 0.0
0.6901862411 0.8077418761 0.0
0.5086644896 0.7093756170 0.0
0.9060967775 0.7649205249 0.0
0.8521256694 0.3678193408 0.0
0.8408886913 0.2552198348 0.0
0.9474399990 0.9487093426 0.0
0.8077519151 0.8660109053 0.0
0.9861461955 0.4604473843 0.0
0.4016675761 0.8057077940 0.0
0.7141036684 0.9227690139 0.0
0.2866546340 0.8600829858 0.0
0.4767688374 0.9570386800 0.0
0.5849855085 0.9929554434 0.0
0.5729129079 0.8349126897 0.0
0.0947863972 1.1150301063 0.0
0.2778065785 1.1052295970 0.0
0.1614506718 1.0172172072 0.0
0.5191467590 1.0843678920 0.0
0.6464501851 1.0880459935 0.0
0.8117536163 1.1425501497 0.0
1.0947863972 0.1150301063 0.0
1.0602528104 0.3038797351 0.0
1.1017600554 0.6336348679 0.0
1.0143564670 0.8044178522 0.0
1.0947863972 1.1150301063 0.0
7 2 3 
1 7 5 3 
16 1 2 5 
28 17 9 
3 2 
9 16 
20 2 1 
12 11 20 
28 4 16 6 
26 
21 23 8 12 
21 11 8 
39 14 15 26 
27 25 13 
25 17 28 13 
3 6 9 
25 18 4 15 
29 23 21 17 25 
56 39 26 55 
22 7 8 
18 11 12 
23 20 
36 24 22 11 18 
32 23 
27 18 17 15 14 
19 13 10 
34 29 25 14 38 
15 4 9 
18 27 
51 49 31 32 
32 30 
51 30 31 24 
37 41 
57 37 27 38 42 
41 44 48 36 
35 43 23 
58 33 34 57 
42 34 27 
19 13 
59 58 
35 33 
34 38 56 
48 46 36 
54 53 47 48 35 
46 50 51 
47 52 45 43 48 
53 46 48 44 
44 47 46 43 35 
30 
45 
30 32 45 
46 
47 44 
44 
19 
42 19 
37 34 
40 37 
40 
