66
-0.75 0.433013 0.0
-0.75 -0.433013 0.0
0.75 -0.433013 0.0
0.75 0.433013 0.0
-0.5 0.0 0.0
0.5 0.0 0.0
-0.5227272727272727 0.03936481818181818 0.0
-0.5454545454545454 0.07872963636363636 0.0
-0.5681818181818181 0.11809445454545454 0.0
-0.5909090909090908 0.15745927272727273 0.0
-0.6136363636363635 0.19682409090909092 0.0
-0.6363636363636362 0.23618890909090912 0.0
-0.659090909090909 0.2755537272727273 0.0
-0.6818181818181817 0.3149185454545455 0.0
-0.7045454545454544 0.3542833636363637 0.0
-0.7272727272727271 0.3936481818181819 0.0
-0.5227272727272727 -0.03936481818181818 0.0
-0.5454545454545454 -0.07872963636363636 0.0
-0.5681818181818181 -0.11809445454545454 0.0
-0.5909090909090908 -0.15745927272727273 0.0
-0.6136363636363635 -0.19682409090909092 0.0
-0.6363636363636362 -0.23618890909090912 0.0
-0.659090909090909 -0.2755537272727273 0.0
-0.6818181818181817 -0.3149185454545455 0.0
-0.7045454545454544 -0.3542833636363637 0.0
-0.7272727272727271 -0.3936481818181819 0.0
0.5227272727272727 -0.03936481818181818 0.0
0.5454545454545454 -0.07872963636363636 0.0
0.5681818181818181 -0.11809445454545454 0.0
0.5909090909090908 -0.15745927272727273 0.0
0.6136363636363635 -0.19682409090909092 0.0
0.6363636363636362 -0.23618890909090912 0.0
0.659090909090909 -0.2755537272727273 0.0
0.6818181818181817 -0.3149185454545455 0.0
0.7045454545454544 -0.3542833636363637 0.0
0.7272727272727271 -0.3936481818181819 0.0
0.5227272727272727 0.03936481818181818 0.0
0.5454545454545454 0.07872963636363636 0.0
0.5681818181818181 0.11809445454545454 0.0
0.5909090909090908 0.15745927272727273 0.0
0.6136363636363635 0.19682409090909092 0.0
0.6363636363636362 0.23618890909090912 0.0
0.659090909090909 0.2755537272727273 0.0
0.6818181818181817 0.3149185454545455 0.0
0.7045454545454544 0.3542833636363637 0.0
0.7272727272727271 0.3936481818181819 0.0
0.4523809523809524 0.0 0.0
0.40476190476190477 0.0 0.0
0.35714285714285715 0.0 0.0
0.30952380952380953 0.0 0.0
0.2619047619047619 0.0 0.0
0.2142857142857143 0.0 0.0
0.16666666666666669 0.0 0.0
0.11904761904761907 0.0 0.0
0.07142857142857145 0.0 0.0
0.023809523809523836 0.0 0.0
-0.02380952380952378 0.0 0.0
-0.0714285714285714 0.0 0.0
-0.11904761904761901 0.0 0.0
-0.16666666666666663 0.0 0.0
-0.21428571428571425 0.0 0.0
-0.26190476190476186 0.0 0.0
-0.3095238095238095 0.0 0.0
-0.3571428571428571 0.0 0.0
-0.4047619047619047 0.0 0.0
-0.45238095238095233 0.0 0.0
16 
26 
36 
46 
17 66 7 
27 37 47 
5 8 
9 7 
10 8 
9 11 
10 12 
11 13 
12 14 
13 15 
14 16 
1 15 
18 5 
17 19 
18 20 
19 21 
20 22 
21 23 
22 24 
25 23 
26 24 
25 2 
28 6 
27 29 
28 30 
29 31 
30 32 
33 31 
34 32 
33 35 
34 36 
35 3 
38 6 
37 39 
38 40 
41 39 
42 40 
41 43 
42 44 
43 45 
44 46 
4 45 
6 48 
49 47 
50 48 
49 51 
50 52 
51 53 
52 54 
53 55 
54 56 
57 55 
58 56 
57 59 
58 60 
59 61 
60 62 
61 63 
62 64 
65 63 
66 64 
65 5 
Periodic constraints
4 2 C U
3 1 C R
