110
-5.0 0.0 0.0
-4.0 0.0 0.0
-3.0 0.0 0.0
-2.0 0.0 0.0
-1.0 0.0 0.0
0.0 0.0 0.0
1.0 0.0 0.0
2.0 0.0 0.0
3.0 0.0 0.0
4.0 0.0 0.0
5.0 0.0 0.0
-5.0 -0.8888888888888888 0.0
-4.0 -0.8888888888888888 0.0
-3.0 -0.8888888888888888 0.0
-2.0 -0.8888888888888888 0.0
-1.0 -0.8888888888888888 0.0
0.0 -0.8888888888888888 0.0
1.0 -0.8888888888888888 0.0
2.0 -0.8888888888888888 0.0
3.0 -0.8888888888888888 0.0
4.0 -0.8888888888888888 0.0
5.0 -0.8888888888888888 0.0
-5.0 -1.7777777777777777 0.0
-4.0 -1.777777777777778 0.0
-3.0 -1.7777777777777777 0.0
-2.0 -1.777777777777778 0.0
-1.0 -1.7777777777777777 0.0
0.0 -1.777777777777778 0.0
1.0 -1.7777777777777777 0.0
2.0 -1.777777777777778 0.0
3.0 -1.7777777777777777 0.0
4.0 -1.777777777777778 0.0
5.0 -1.7777777777777777 0.0
-5.0 -2.6666666666666665 0.0
-4.0 -2.666666666666667 0.0
-3.0 -2.6666666666666665 0.0
-2.0 -2.666666666666667 0.0
-1.0 -2.6666666666666665 0.0
0.0 -2.666666666666667 0.0
1.0 -2.6666666666666665 0.0
2.0 -2.666666666666667 0.0
3.0 -2.6666666666666665 0.0
4.0 -2.666666666666667 0.0
5.0 -2.6666666666666665 0.0
-5.0 -3.5555555555555554 0.0
-4.0 -3.5555555555555554 0.0
-3.0 -3.5555555555555554 0.0
-2.0 -3.5555555555555554 0.0
-1.0 -3.5555555555555554 0.0
0.0 -3.5555555555555554 0.0
1.0 -3.5555555555555554 0.0
2.0 -3.5555555555555554 0.0
3.0 -3.5555555555555554 0.0
4.0 -3.5555555555555554 0.0
5.0 -3.5555555555555554 0.0
-5.0 -4.444444444444445 0.0
-4.0 -4.444444444444445 0.0
-3.0 -4.444444444444445 0.0
-2.0 -4.444444444444445 0.0
-1.0 -4.444444444444445 0.0
0.0 -4.444444444444445 0.0
1.0 -4.444444444444445 0.0
2.0 -4.444444444444445 0.0
3.0 -4.444444444444445 0.0
4.0 -4.444444444444445 0.0
5.0 -4.444444444444445 0.0
-5.0 -5.333333333333334 0.0
-4.0 -5.333333333333334 0.0
-3.0 -5.333333333333334 0.0
-2.0 -5.333333333333334 0.0
-1.0 -5.333333333333334 0.0
0.0 -5.333333333333334 0.0
1.0 -5.333333333333334 0.0
2.0 -5.333333333333334 0.0
3.0 -5.333333333333334 0.0
4.0 -5.333333333333334 0.0
5.0 -5.333333333333334 0.0
-5.0 -6.222222222222223 0.0
-4.0 -6.222222222222223 0.0
-3.0 -6.222222222222223 0.0
-2.0 -6.222222222222223 0.0
-1.0 -6.222222222222223 0.0
0.0 -6.222222222222223 0.0
1.0 -6.222222222222223 0.0
2.0 -6.222222222222223 0.0
3.0 -6.222222222222223 0.0
4.0 -6.222222222222223 0.0
5.0 -6.222222222222223 0.0
-5.0 -7.1111111111111125 0.0
-4.0 -7.1111111111111125 0.0
-3.0 -7.1111111111111125 0.0
-2.0 -7.1111111111111125 0.0
-1.0 -7.1111111111111125 0.0
0.0 -7.1111111111111125 0.0
1.0 -7.1111111111111125 0.0
2.0 -7.1111111111111125 0.0
3.0 -7.1111111111111125 0.0
4.0 -7.1111111111111125 0.0
5.0 -7.1111111111111125 0.0
-5.0 -8.000000000000002 0.0
-4.0 -8.000000000000002 0.0
-3.0 -8.000000000000002 0.0
-2.0 -8.000000000000002 0.0
-1.0 -8.000000000000002 0.0
0.0 -8.000000000000002 0.0
1.0 -8.000000000000002 0.0
2.0 -8.000000000000002 0.0
3.0 -8.000000000000002 0.0
4.0 -8.000000000000002 0.0
5.0 -8.000000000000002 0.0
12 2
3 1
2 14 4
5 3
4 16 6
7 5
6 18 8
9 7
8 20 10
11 9
10 22
13 1
12 24 14
15 3 13
14 26 16
17 5 15
16 28 18
19 7 17
18 30 20
21 9 19
20 32 22
11 21
34 24
25 13 23
24 36 26
27 15 25
26 38 28
29 17 27
28 40 30
31 19 29
30 42 32
33 21 31
32 44
35 23
34 46 36
37 25 35
36 48 38
39 27 37
38 50 40
41 29 39
40 52 42
43 31 41
42 54 44
33 43
56 46
47 35 45
46 58 48
49 37 47
48 60 50
51 39 49
50 62 52
53 41 51
52 64 54
55 43 53
54 66
57 45
56 68 58
59 47 57
58 70 60
61 49 59
60 72 62
63 51 61
62 74 64
65 53 63
64 76 66
55 65
78 68
69 57 67
68 80 70
71 59 69
70 82 72
73 61 71
72 84 74
75 63 73
74 86 76
77 65 75
76 88
79 67
78 90 80
81 69 79
80 92 82
83 71 81
82 94 84
85 73 83
84 96 86
87 75 85
86 98 88
77 87
100 90
91 79 89
90 102 92
93 81 91
92 104 94
95 83 93
94 106 96
97 85 95
96 108 98
99 87 97
98 110
101 89
102 100
103 91 101
104 102
105 93 103
106 104
107 95 105
108 106
109 97 107
110 108
99 109
boundary conditions
10
1 12 23 34 45 56 67 78 89 100 
10
11 22 33 44 55 66 77 88 99 110 