6
-0.5 0.43301270189221932338 0.
-0.5 -0.43301270189221932338 0.
0.5 -0.43301270189221932338 0.
0.5 0.43301270189221932338 0.
-0.75 0. 0.
0.75 0. 0.
5
5
6
6
1 2 6
3 4 5
Periodic points
4 2 C U
3 1 C R
