210
-5.0 0.0 0.0
-4.5 -0.5 0.0
-4.0 0.0 0.0
-3.5 -0.5 0.0
-3.0 0.0 0.0
-2.5 -0.5 0.0
-2.0 0.0 0.0
-1.5 -0.5 0.0
-1.0 0.0 0.0
-0.5 -0.5 0.0
0.0 0.0 0.0
0.5 -0.5 0.0
1.0 0.0 0.0
1.5 -0.5 0.0
2.0 0.0 0.0
2.5 -0.5 0.0
3.0 0.0 0.0
3.5 -0.5 0.0
4.0 0.0 0.0
4.5 -0.5 0.0
5.0 0.0 0.0
-5.0 -1.3333333333333333 0.0
-4.5 -0.8333333333333333 0.0
-4.0 -1.3333333333333333 0.0
-3.5 -0.8333333333333333 0.0
-3.0 -1.3333333333333333 0.0
-2.5 -0.8333333333333333 0.0
-2.0 -1.3333333333333333 0.0
-1.5 -0.8333333333333333 0.0
-1.0 -1.3333333333333333 0.0
-0.5 -0.8333333333333333 0.0
0.0 -1.3333333333333333 0.0
0.5 -0.8333333333333333 0.0
1.0 -1.3333333333333333 0.0
1.5 -0.8333333333333333 0.0
2.0 -1.3333333333333333 0.0
2.5 -0.8333333333333333 0.0
3.0 -1.3333333333333333 0.0
3.5 -0.8333333333333333 0.0
4.0 -1.3333333333333333 0.0
4.5 -0.8333333333333333 0.0
5.0 -1.3333333333333333 0.0
-5.0 -1.6666666666666665 0.0
-4.5 -2.1666666666666665 0.0
-4.0 -1.6666666666666665 0.0
-3.5 -2.1666666666666665 0.0
-3.0 -1.6666666666666665 0.0
-2.5 -2.1666666666666665 0.0
-2.0 -1.6666666666666665 0.0
-1.5 -2.1666666666666665 0.0
-1.0 -1.6666666666666665 0.0
-0.5 -2.1666666666666665 0.0
0.0 -1.6666666666666665 0.0
0.5 -2.1666666666666665 0.0
1.0 -1.6666666666666665 0.0
1.5 -2.1666666666666665 0.0
2.0 -1.6666666666666665 0.0
2.5 -2.1666666666666665 0.0
3.0 -1.6666666666666665 0.0
3.5 -2.1666666666666665 0.0
4.0 -1.6666666666666665 0.0
4.5 -2.1666666666666665 0.0
5.0 -1.6666666666666665 0.0
-5.0 -3.0 0.0
-4.5 -2.4999999999999996 0.0
-4.0 -3.0 0.0
-3.5 -2.4999999999999996 0.0
-3.0 -3.0 0.0
-2.5 -2.4999999999999996 0.0
-2.0 -3.0 0.0
-1.5 -2.4999999999999996 0.0
-1.0 -3.0 0.0
-0.5 -2.4999999999999996 0.0
0.0 -3.0 0.0
0.5 -2.4999999999999996 0.0
1.0 -3.0 0.0
1.5 -2.4999999999999996 0.0
2.0 -3.0 0.0
2.5 -2.4999999999999996 0.0
3.0 -3.0 0.0
3.5 -2.4999999999999996 0.0
4.0 -3.0 0.0
4.5 -2.4999999999999996 0.0
5.0 -3.0 0.0
-5.0 -3.3333333333333335 0.0
-4.5 -3.8333333333333335 0.0
-4.0 -3.3333333333333335 0.0
-3.5 -3.8333333333333335 0.0
-3.0 -3.3333333333333335 0.0
-2.5 -3.8333333333333335 0.0
-2.0 -3.3333333333333335 0.0
-1.5 -3.8333333333333335 0.0
-1.0 -3.3333333333333335 0.0
-0.5 -3.8333333333333335 0.0
0.0 -3.3333333333333335 0.0
0.5 -3.8333333333333335 0.0
1.0 -3.3333333333333335 0.0
1.5 -3.8333333333333335 0.0
2.0 -3.3333333333333335 0.0
2.5 -3.8333333333333335 0.0
3.0 -3.3333333333333335 0.0
3.5 -3.8333333333333335 0.0
4.0 -3.3333333333333335 0.0
4.5 -3.8333333333333335 0.0
5.0 -3.3333333333333335 0.0
-5.0 -4.666666666666667 0.0
-4.5 -4.166666666666667 0.0
-4.0 -4.666666666666667 0.0
-3.5 -4.166666666666667 0.0
-3.0 -4.666666666666667 0.0
-2.5 -4.166666666666667 0.0
-2.0 -4.666666666666667 0.0
-1.5 -4.166666666666667 0.0
-1.0 -4.666666666666667 0.0
-0.5 -4.166666666666667 0.0
0.0 -4.666666666666667 0.0
0.5 -4.166666666666667 0.0
1.0 -4.666666666666667 0.0
1.5 -4.166666666666667 0.0
2.0 -4.666666666666667 0.0
2.5 -4.166666666666667 0.0
3.0 -4.666666666666667 0.0
3.5 -4.166666666666667 0.0
4.0 -4.666666666666667 0.0
4.5 -4.166666666666667 0.0
5.0 -4.666666666666667 0.0
-5.0 -5.0 0.0
-4.5 -5.5 0.0
-4.0 -5.0 0.0
-3.5 -5.5 0.0
-3.0 -5.0 0.0
-2.5 -5.5 0.0
-2.0 -5.0 0.0
-1.5 -5.5 0.0
-1.0 -5.0 0.0
-0.5 -5.5 0.0
0.0 -5.0 0.0
0.5 -5.5 0.0
1.0 -5.0 0.0
1.5 -5.5 0.0
2.0 -5.0 0.0
2.5 -5.5 0.0
3.0 -5.0 0.0
3.5 -5.5 0.0
4.0 -5.0 0.0
4.5 -5.5 0.0
5.0 -5.0 0.0
-5.0 -6.333333333333333 0.0
-4.5 -5.833333333333334 0.0
-4.0 -6.333333333333333 0.0
-3.5 -5.833333333333334 0.0
-3.0 -6.333333333333333 0.0
-2.5 -5.833333333333334 0.0
-2.0 -6.333333333333333 0.0
-1.5 -5.833333333333334 0.0
-1.0 -6.333333333333333 0.0
-0.5 -5.833333333333334 0.0
0.0 -6.333333333333333 0.0
0.5 -5.833333333333334 0.0
1.0 -6.333333333333333 0.0
1.5 -5.833333333333334 0.0
2.0 -6.333333333333333 0.0
2.5 -5.833333333333334 0.0
3.0 -6.333333333333333 0.0
3.5 -5.833333333333334 0.0
4.0 -6.333333333333333 0.0
4.5 -5.833333333333334 0.0
5.0 -6.333333333333333 0.0
-5.0 -6.666666666666666 0.0
-4.5 -7.166666666666666 0.0
-4.0 -6.666666666666666 0.0
-3.5 -7.166666666666666 0.0
-3.0 -6.666666666666666 0.0
-2.5 -7.166666666666666 0.0
-2.0 -6.666666666666666 0.0
-1.5 -7.166666666666666 0.0
-1.0 -6.666666666666666 0.0
-0.5 -7.166666666666666 0.0
0.0 -6.666666666666666 0.0
0.5 -7.166666666666666 0.0
1.0 -6.666666666666666 0.0
1.5 -7.166666666666666 0.0
2.0 -6.666666666666666 0.0
2.5 -7.166666666666666 0.0
3.0 -6.666666666666666 0.0
3.5 -7.166666666666666 0.0
4.0 -6.666666666666666 0.0
4.5 -7.166666666666666 0.0
5.0 -6.666666666666666 0.0
-5.0 -7.999999999999999 0.0
-4.5 -7.5 0.0
-4.0 -7.999999999999999 0.0
-3.5 -7.5 0.0
-3.0 -7.999999999999999 0.0
-2.5 -7.5 0.0
-2.0 -7.999999999999999 0.0
-1.5 -7.5 0.0
-1.0 -7.999999999999999 0.0
-0.5 -7.5 0.0
0.0 -7.999999999999999 0.0
0.5 -7.5 0.0
1.0 -7.999999999999999 0.0
1.5 -7.5 0.0
2.0 -7.999999999999999 0.0
2.5 -7.5 0.0
3.0 -7.999999999999999 0.0
3.5 -7.5 0.0
4.0 -7.999999999999999 0.0
4.5 -7.5 0.0
5.0 -7.999999999999999 0.0
22 2
3 1
2 24 4
5 3
4 26 6
7 5
6 28 8
9 7
8 30 10
11 9
10 32 12
13 11
12 34 14
15 13
14 36 16
17 15
16 38 18
19 17
18 40 20
21 19
20 42
23 1
22 44 24
25 3 23
24 46 26
27 5 25
26 48 28
29 7 27
28 50 30
31 9 29
30 52 32
33 11 31
32 54 34
35 13 33
34 56 36
37 15 35
36 58 38
39 17 37
38 60 40
41 19 39
40 62 42
21 41
64 44
45 23 43
44 66 46
47 25 45
46 68 48
49 27 47
48 70 50
51 29 49
50 72 52
53 31 51
52 74 54
55 33 53
54 76 56
57 35 55
56 78 58
59 37 57
58 80 60
61 39 59
60 82 62
63 41 61
62 84
65 43
64 86 66
67 45 65
66 88 68
69 47 67
68 90 70
71 49 69
70 92 72
73 51 71
72 94 74
75 53 73
74 96 76
77 55 75
76 98 78
79 57 77
78 100 80
81 59 79
80 102 82
83 61 81
82 104 84
63 83
106 86
87 65 85
86 108 88
89 67 87
88 110 90
91 69 89
90 112 92
93 71 91
92 114 94
95 73 93
94 116 96
97 75 95
96 118 98
99 77 97
98 120 100
101 79 99
100 122 102
103 81 101
102 124 104
105 83 103
104 126
107 85
106 128 108
109 87 107
108 130 110
111 89 109
110 132 112
113 91 111
112 134 114
115 93 113
114 136 116
117 95 115
116 138 118
119 97 117
118 140 120
121 99 119
120 142 122
123 101 121
122 144 124
125 103 123
124 146 126
105 125
148 128
129 107 127
128 150 130
131 109 129
130 152 132
133 111 131
132 154 134
135 113 133
134 156 136
137 115 135
136 158 138
139 117 137
138 160 140
141 119 139
140 162 142
143 121 141
142 164 144
145 123 143
144 166 146
147 125 145
146 168
149 127
148 170 150
151 129 149
150 172 152
153 131 151
152 174 154
155 133 153
154 176 156
157 135 155
156 178 158
159 137 157
158 180 160
161 139 159
160 182 162
163 141 161
162 184 164
165 143 163
164 186 166
167 145 165
166 188 168
147 167
190 170
171 149 169
170 192 172
173 151 171
172 194 174
175 153 173
174 196 176
177 155 175
176 198 178
179 157 177
178 200 180
181 159 179
180 202 182
183 161 181
182 204 184
185 163 183
184 206 186
187 165 185
186 208 188
189 167 187
188 210
191 169
192 190
193 171 191
194 192
195 173 193
196 194
197 175 195
198 196
199 177 197
200 198
201 179 199
202 200
203 181 201
204 202
205 183 203
206 204
207 185 205
208 206
209 187 207
210 208
189 209
boundary conditions
10
1 22 43 64 85 106 127 148 169 190 
10
21 42 63 84 105 126 147 168 189 210 
