1824
0.0 0.0 0.0
-1.0 -1.0 0.0
1.0 -1.0 0.0
1.0 1.0 0.0
-1.0 1.0 0.0
0.0 -2.0 0.0
2.0 0.0 0.0
0.0 2.0 0.0
-2.0 0.0 0.0
4.0 0.0 0.0
3.0 -1.0 0.0
5.0 -1.0 0.0
5.0 1.0 0.0
3.0 1.0 0.0
4.0 -2.0 0.0
6.0 0.0 0.0
4.0 2.0 0.0
8.0 0.0 0.0
7.0 -1.0 0.0
9.0 -1.0 0.0
9.0 1.0 0.0
7.0 1.0 0.0
8.0 -2.0 0.0
10.0 0.0 0.0
8.0 2.0 0.0
12.0 0.0 0.0
11.0 -1.0 0.0
13.0 -1.0 0.0
13.0 1.0 0.0
11.0 1.0 0.0
12.0 -2.0 0.0
14.0 0.0 0.0
12.0 2.0 0.0
16.0 0.0 0.0
15.0 -1.0 0.0
17.0 -1.0 0.0
17.0 1.0 0.0
15.0 1.0 0.0
16.0 -2.0 0.0
18.0 0.0 0.0
16.0 2.0 0.0
20.0 0.0 0.0
19.0 -1.0 0.0
21.0 -1.0 0.0
21.0 1.0 0.0
19.0 1.0 0.0
20.0 -2.0 0.0
22.0 0.0 0.0
20.0 2.0 0.0
24.0 0.0 0.0
23.0 -1.0 0.0
25.0 -1.0 0.0
25.0 1.0 0.0
23.0 1.0 0.0
24.0 -2.0 0.0
26.0 0.0 0.0
24.0 2.0 0.0
28.0 0.0 0.0
27.0 -1.0 0.0
29.0 -1.0 0.0
29.0 1.0 0.0
27.0 1.0 0.0
28.0 -2.0 0.0
30.0 0.0 0.0
28.0 2.0 0.0
32.0 0.0 0.0
31.0 -1.0 0.0
33.0 -1.0 0.0
33.0 1.0 0.0
31.0 1.0 0.0
32.0 -2.0 0.0
34.0 0.0 0.0
32.0 2.0 0.0
36.0 0.0 0.0
35.0 -1.0 0.0
37.0 -1.0 0.0
37.0 1.0 0.0
35.0 1.0 0.0
36.0 -2.0 0.0
38.0 0.0 0.0
36.0 2.0 0.0
40.0 0.0 0.0
39.0 -1.0 0.0
41.0 -1.0 0.0
41.0 1.0 0.0
39.0 1.0 0.0
40.0 -2.0 0.0
42.0 0.0 0.0
40.0 2.0 0.0
44.0 0.0 0.0
43.0 -1.0 0.0
45.0 -1.0 0.0
45.0 1.0 0.0
43.0 1.0 0.0
44.0 -2.0 0.0
46.0 0.0 0.0
44.0 2.0 0.0
48.0 0.0 0.0
47.0 -1.0 0.0
49.0 -1.0 0.0
49.0 1.0 0.0
47.0 1.0 0.0
48.0 -2.0 0.0
50.0 0.0 0.0
48.0 2.0 0.0
52.0 0.0 0.0
51.0 -1.0 0.0
53.0 -1.0 0.0
53.0 1.0 0.0
51.0 1.0 0.0
52.0 -2.0 0.0
54.0 0.0 0.0
52.0 2.0 0.0
56.0 0.0 0.0
55.0 -1.0 0.0
57.0 -1.0 0.0
57.0 1.0 0.0
55.0 1.0 0.0
56.0 -2.0 0.0
58.0 0.0 0.0
56.0 2.0 0.0
60.0 0.0 0.0
59.0 -1.0 0.0
61.0 -1.0 0.0
61.0 1.0 0.0
59.0 1.0 0.0
60.0 -2.0 0.0
62.0 0.0 0.0
60.0 2.0 0.0
0.0 4.0 0.0
-1.0 3.0 0.0
1.0 3.0 0.0
1.0 5.0 0.0
-1.0 5.0 0.0
2.0 4.0 0.0
0.0 6.0 0.0
-2.0 4.0 0.0
4.0 4.0 0.0
3.0 3.0 0.0
5.0 3.0 0.0
5.0 5.0 0.0
3.0 5.0 0.0
6.0 4.0 0.0
4.0 6.0 0.0
8.0 4.0 0.0
7.0 3.0 0.0
9.0 3.0 0.0
9.0 5.0 0.0
7.0 5.0 0.0
10.0 4.0 0.0
8.0 6.0 0.0
12.0 4.0 0.0
11.0 3.0 0.0
13.0 3.0 0.0
13.0 5.0 0.0
11.0 5.0 0.0
14.0 4.0 0.0
12.0 6.0 0.0
16.0 4.0 0.0
15.0 3.0 0.0
17.0 3.0 0.0
17.0 5.0 0.0
15.0 5.0 0.0
18.0 4.0 0.0
16.0 6.0 0.0
20.0 4.0 0.0
19.0 3.0 0.0
21.0 3.0 0.0
21.0 5.0 0.0
19.0 5.0 0.0
22.0 4.0 0.0
20.0 6.0 0.0
24.0 4.0 0.0
23.0 3.0 0.0
25.0 3.0 0.0
25.0 5.0 0.0
23.0 5.0 0.0
26.0 4.0 0.0
24.0 6.0 0.0
28.0 4.0 0.0
27.0 3.0 0.0
29.0 3.0 0.0
29.0 5.0 0.0
27.0 5.0 0.0
30.0 4.0 0.0
28.0 6.0 0.0
32.0 4.0 0.0
31.0 3.0 0.0
33.0 3.0 0.0
33.0 5.0 0.0
31.0 5.0 0.0
34.0 4.0 0.0
32.0 6.0 0.0
36.0 4.0 0.0
35.0 3.0 0.0
37.0 3.0 0.0
37.0 5.0 0.0
35.0 5.0 0.0
38.0 4.0 0.0
36.0 6.0 0.0
40.0 4.0 0.0
39.0 3.0 0.0
41.0 3.0 0.0
41.0 5.0 0.0
39.0 5.0 0.0
42.0 4.0 0.0
40.0 6.0 0.0
44.0 4.0 0.0
43.0 3.0 0.0
45.0 3.0 0.0
45.0 5.0 0.0
43.0 5.0 0.0
46.0 4.0 0.0
44.0 6.0 0.0
48.0 4.0 0.0
47.0 3.0 0.0
49.0 3.0 0.0
49.0 5.0 0.0
47.0 5.0 0.0
50.0 4.0 0.0
48.0 6.0 0.0
52.0 4.0 0.0
51.0 3.0 0.0
53.0 3.0 0.0
53.0 5.0 0.0
51.0 5.0 0.0
54.0 4.0 0.0
52.0 6.0 0.0
56.0 4.0 0.0
55.0 3.0 0.0
57.0 3.0 0.0
57.0 5.0 0.0
55.0 5.0 0.0
58.0 4.0 0.0
56.0 6.0 0.0
60.0 4.0 0.0
59.0 3.0 0.0
61.0 3.0 0.0
61.0 5.0 0.0
59.0 5.0 0.0
62.0 4.0 0.0
60.0 6.0 0.0
0.0 8.0 0.0
-1.0 7.0 0.0
1.0 7.0 0.0
1.0 9.0 0.0
-1.0 9.0 0.0
2.0 8.0 0.0
0.0 10.0 0.0
-2.0 8.0 0.0
4.0 8.0 0.0
3.0 7.0 0.0
5.0 7.0 0.0
5.0 9.0 0.0
3.0 9.0 0.0
6.0 8.0 0.0
4.0 10.0 0.0
8.0 8.0 0.0
7.0 7.0 0.0
9.0 7.0 0.0
9.0 9.0 0.0
7.0 9.0 0.0
10.0 8.0 0.0
8.0 10.0 0.0
12.0 8.0 0.0
11.0 7.0 0.0
13.0 7.0 0.0
13.0 9.0 0.0
11.0 9.0 0.0
14.0 8.0 0.0
12.0 10.0 0.0
16.0 8.0 0.0
15.0 7.0 0.0
17.0 7.0 0.0
17.0 9.0 0.0
15.0 9.0 0.0
18.0 8.0 0.0
16.0 10.0 0.0
20.0 8.0 0.0
19.0 7.0 0.0
21.0 7.0 0.0
21.0 9.0 0.0
19.0 9.0 0.0
22.0 8.0 0.0
20.0 10.0 0.0
24.0 8.0 0.0
23.0 7.0 0.0
25.0 7.0 0.0
25.0 9.0 0.0
23.0 9.0 0.0
26.0 8.0 0.0
24.0 10.0 0.0
28.0 8.0 0.0
27.0 7.0 0.0
29.0 7.0 0.0
29.0 9.0 0.0
27.0 9.0 0.0
30.0 8.0 0.0
28.0 10.0 0.0
32.0 8.0 0.0
31.0 7.0 0.0
33.0 7.0 0.0
33.0 9.0 0.0
31.0 9.0 0.0
34.0 8.0 0.0
32.0 10.0 0.0
36.0 8.0 0.0
35.0 7.0 0.0
37.0 7.0 0.0
37.0 9.0 0.0
35.0 9.0 0.0
38.0 8.0 0.0
36.0 10.0 0.0
40.0 8.0 0.0
39.0 7.0 0.0
41.0 7.0 0.0
41.0 9.0 0.0
39.0 9.0 0.0
42.0 8.0 0.0
40.0 10.0 0.0
44.0 8.0 0.0
43.0 7.0 0.0
45.0 7.0 0.0
45.0 9.0 0.0
43.0 9.0 0.0
46.0 8.0 0.0
44.0 10.0 0.0
48.0 8.0 0.0
47.0 7.0 0.0
49.0 7.0 0.0
49.0 9.0 0.0
47.0 9.0 0.0
50.0 8.0 0.0
48.0 10.0 0.0
52.0 8.0 0.0
51.0 7.0 0.0
53.0 7.0 0.0
53.0 9.0 0.0
51.0 9.0 0.0
54.0 8.0 0.0
52.0 10.0 0.0
56.0 8.0 0.0
55.0 7.0 0.0
57.0 7.0 0.0
57.0 9.0 0.0
55.0 9.0 0.0
58.0 8.0 0.0
56.0 10.0 0.0
60.0 8.0 0.0
59.0 7.0 0.0
61.0 7.0 0.0
61.0 9.0 0.0
59.0 9.0 0.0
62.0 8.0 0.0
60.0 10.0 0.0
0.0 12.0 0.0
-1.0 11.0 0.0
1.0 11.0 0.0
1.0 13.0 0.0
-1.0 13.0 0.0
2.0 12.0 0.0
0.0 14.0 0.0
-2.0 12.0 0.0
4.0 12.0 0.0
3.0 11.0 0.0
5.0 11.0 0.0
5.0 13.0 0.0
3.0 13.0 0.0
6.0 12.0 0.0
4.0 14.0 0.0
8.0 12.0 0.0
7.0 11.0 0.0
9.0 11.0 0.0
9.0 13.0 0.0
7.0 13.0 0.0
10.0 12.0 0.0
8.0 14.0 0.0
12.0 12.0 0.0
11.0 11.0 0.0
13.0 11.0 0.0
13.0 13.0 0.0
11.0 13.0 0.0
14.0 12.0 0.0
12.0 14.0 0.0
16.0 12.0 0.0
15.0 11.0 0.0
17.0 11.0 0.0
17.0 13.0 0.0
15.0 13.0 0.0
18.0 12.0 0.0
16.0 14.0 0.0
20.0 12.0 0.0
19.0 11.0 0.0
21.0 11.0 0.0
21.0 13.0 0.0
19.0 13.0 0.0
22.0 12.0 0.0
20.0 14.0 0.0
24.0 12.0 0.0
23.0 11.0 0.0
25.0 11.0 0.0
25.0 13.0 0.0
23.0 13.0 0.0
26.0 12.0 0.0
24.0 14.0 0.0
28.0 12.0 0.0
27.0 11.0 0.0
29.0 11.0 0.0
29.0 13.0 0.0
27.0 13.0 0.0
30.0 12.0 0.0
28.0 14.0 0.0
32.0 12.0 0.0
31.0 11.0 0.0
33.0 11.0 0.0
33.0 13.0 0.0
31.0 13.0 0.0
34.0 12.0 0.0
32.0 14.0 0.0
36.0 12.0 0.0
35.0 11.0 0.0
37.0 11.0 0.0
37.0 13.0 0.0
35.0 13.0 0.0
38.0 12.0 0.0
36.0 14.0 0.0
40.0 12.0 0.0
39.0 11.0 0.0
41.0 11.0 0.0
41.0 13.0 0.0
39.0 13.0 0.0
42.0 12.0 0.0
40.0 14.0 0.0
44.0 12.0 0.0
43.0 11.0 0.0
45.0 11.0 0.0
45.0 13.0 0.0
43.0 13.0 0.0
46.0 12.0 0.0
44.0 14.0 0.0
48.0 12.0 0.0
47.0 11.0 0.0
49.0 11.0 0.0
49.0 13.0 0.0
47.0 13.0 0.0
50.0 12.0 0.0
48.0 14.0 0.0
52.0 12.0 0.0
51.0 11.0 0.0
53.0 11.0 0.0
53.0 13.0 0.0
51.0 13.0 0.0
54.0 12.0 0.0
52.0 14.0 0.0
56.0 12.0 0.0
55.0 11.0 0.0
57.0 11.0 0.0
57.0 13.0 0.0
55.0 13.0 0.0
58.0 12.0 0.0
56.0 14.0 0.0
60.0 12.0 0.0
59.0 11.0 0.0
61.0 11.0 0.0
61.0 13.0 0.0
59.0 13.0 0.0
62.0 12.0 0.0
60.0 14.0 0.0
0.0 16.0 0.0
-1.0 15.0 0.0
1.0 15.0 0.0
1.0 17.0 0.0
-1.0 17.0 0.0
2.0 16.0 0.0
0.0 18.0 0.0
-2.0 16.0 0.0
4.0 16.0 0.0
3.0 15.0 0.0
5.0 15.0 0.0
5.0 17.0 0.0
3.0 17.0 0.0
6.0 16.0 0.0
4.0 18.0 0.0
8.0 16.0 0.0
7.0 15.0 0.0
9.0 15.0 0.0
9.0 17.0 0.0
7.0 17.0 0.0
10.0 16.0 0.0
8.0 18.0 0.0
12.0 16.0 0.0
11.0 15.0 0.0
13.0 15.0 0.0
13.0 17.0 0.0
11.0 17.0 0.0
14.0 16.0 0.0
12.0 18.0 0.0
16.0 16.0 0.0
15.0 15.0 0.0
17.0 15.0 0.0
17.0 17.0 0.0
15.0 17.0 0.0
18.0 16.0 0.0
16.0 18.0 0.0
20.0 16.0 0.0
19.0 15.0 0.0
21.0 15.0 0.0
21.0 17.0 0.0
19.0 17.0 0.0
22.0 16.0 0.0
20.0 18.0 0.0
24.0 16.0 0.0
23.0 15.0 0.0
25.0 15.0 0.0
25.0 17.0 0.0
23.0 17.0 0.0
26.0 16.0 0.0
24.0 18.0 0.0
28.0 16.0 0.0
27.0 15.0 0.0
29.0 15.0 0.0
29.0 17.0 0.0
27.0 17.0 0.0
30.0 16.0 0.0
28.0 18.0 0.0
32.0 16.0 0.0
31.0 15.0 0.0
33.0 15.0 0.0
33.0 17.0 0.0
31.0 17.0 0.0
34.0 16.0 0.0
32.0 18.0 0.0
36.0 16.0 0.0
35.0 15.0 0.0
37.0 15.0 0.0
37.0 17.0 0.0
35.0 17.0 0.0
38.0 16.0 0.0
36.0 18.0 0.0
40.0 16.0 0.0
39.0 15.0 0.0
41.0 15.0 0.0
41.0 17.0 0.0
39.0 17.0 0.0
42.0 16.0 0.0
40.0 18.0 0.0
44.0 16.0 0.0
43.0 15.0 0.0
45.0 15.0 0.0
45.0 17.0 0.0
43.0 17.0 0.0
46.0 16.0 0.0
44.0 18.0 0.0
48.0 16.0 0.0
47.0 15.0 0.0
49.0 15.0 0.0
49.0 17.0 0.0
47.0 17.0 0.0
50.0 16.0 0.0
48.0 18.0 0.0
52.0 16.0 0.0
51.0 15.0 0.0
53.0 15.0 0.0
53.0 17.0 0.0
51.0 17.0 0.0
54.0 16.0 0.0
52.0 18.0 0.0
56.0 16.0 0.0
55.0 15.0 0.0
57.0 15.0 0.0
57.0 17.0 0.0
55.0 17.0 0.0
58.0 16.0 0.0
56.0 18.0 0.0
60.0 16.0 0.0
59.0 15.0 0.0
61.0 15.0 0.0
61.0 17.0 0.0
59.0 17.0 0.0
62.0 16.0 0.0
60.0 18.0 0.0
0.0 20.0 0.0
-1.0 19.0 0.0
1.0 19.0 0.0
1.0 21.0 0.0
-1.0 21.0 0.0
2.0 20.0 0.0
0.0 22.0 0.0
-2.0 20.0 0.0
4.0 20.0 0.0
3.0 19.0 0.0
5.0 19.0 0.0
5.0 21.0 0.0
3.0 21.0 0.0
6.0 20.0 0.0
4.0 22.0 0.0
8.0 20.0 0.0
7.0 19.0 0.0
9.0 19.0 0.0
9.0 21.0 0.0
7.0 21.0 0.0
10.0 20.0 0.0
8.0 22.0 0.0
12.0 20.0 0.0
11.0 19.0 0.0
13.0 19.0 0.0
13.0 21.0 0.0
11.0 21.0 0.0
14.0 20.0 0.0
12.0 22.0 0.0
16.0 20.0 0.0
15.0 19.0 0.0
17.0 19.0 0.0
17.0 21.0 0.0
15.0 21.0 0.0
18.0 20.0 0.0
16.0 22.0 0.0
20.0 20.0 0.0
19.0 19.0 0.0
21.0 19.0 0.0
21.0 21.0 0.0
19.0 21.0 0.0
22.0 20.0 0.0
20.0 22.0 0.0
24.0 20.0 0.0
23.0 19.0 0.0
25.0 19.0 0.0
25.0 21.0 0.0
23.0 21.0 0.0
26.0 20.0 0.0
24.0 22.0 0.0
28.0 20.0 0.0
27.0 19.0 0.0
29.0 19.0 0.0
29.0 21.0 0.0
27.0 21.0 0.0
30.0 20.0 0.0
28.0 22.0 0.0
32.0 20.0 0.0
31.0 19.0 0.0
33.0 19.0 0.0
33.0 21.0 0.0
31.0 21.0 0.0
34.0 20.0 0.0
32.0 22.0 0.0
36.0 20.0 0.0
35.0 19.0 0.0
37.0 19.0 0.0
37.0 21.0 0.0
35.0 21.0 0.0
38.0 20.0 0.0
36.0 22.0 0.0
40.0 20.0 0.0
39.0 19.0 0.0
41.0 19.0 0.0
41.0 21.0 0.0
39.0 21.0 0.0
42.0 20.0 0.0
40.0 22.0 0.0
44.0 20.0 0.0
43.0 19.0 0.0
45.0 19.0 0.0
45.0 21.0 0.0
43.0 21.0 0.0
46.0 20.0 0.0
44.0 22.0 0.0
48.0 20.0 0.0
47.0 19.0 0.0
49.0 19.0 0.0
49.0 21.0 0.0
47.0 21.0 0.0
50.0 20.0 0.0
48.0 22.0 0.0
52.0 20.0 0.0
51.0 19.0 0.0
53.0 19.0 0.0
53.0 21.0 0.0
51.0 21.0 0.0
54.0 20.0 0.0
52.0 22.0 0.0
56.0 20.0 0.0
55.0 19.0 0.0
57.0 19.0 0.0
57.0 21.0 0.0
55.0 21.0 0.0
58.0 20.0 0.0
56.0 22.0 0.0
60.0 20.0 0.0
59.0 19.0 0.0
61.0 19.0 0.0
61.0 21.0 0.0
59.0 21.0 0.0
62.0 20.0 0.0
60.0 22.0 0.0
0.0 24.0 0.0
-1.0 23.0 0.0
1.0 23.0 0.0
1.0 25.0 0.0
-1.0 25.0 0.0
2.0 24.0 0.0
0.0 26.0 0.0
-2.0 24.0 0.0
4.0 24.0 0.0
3.0 23.0 0.0
5.0 23.0 0.0
5.0 25.0 0.0
3.0 25.0 0.0
6.0 24.0 0.0
4.0 26.0 0.0
8.0 24.0 0.0
7.0 23.0 0.0
9.0 23.0 0.0
9.0 25.0 0.0
7.0 25.0 0.0
10.0 24.0 0.0
8.0 26.0 0.0
12.0 24.0 0.0
11.0 23.0 0.0
13.0 23.0 0.0
13.0 25.0 0.0
11.0 25.0 0.0
14.0 24.0 0.0
12.0 26.0 0.0
16.0 24.0 0.0
15.0 23.0 0.0
17.0 23.0 0.0
17.0 25.0 0.0
15.0 25.0 0.0
18.0 24.0 0.0
16.0 26.0 0.0
20.0 24.0 0.0
19.0 23.0 0.0
21.0 23.0 0.0
21.0 25.0 0.0
19.0 25.0 0.0
22.0 24.0 0.0
20.0 26.0 0.0
24.0 24.0 0.0
23.0 23.0 0.0
25.0 23.0 0.0
25.0 25.0 0.0
23.0 25.0 0.0
26.0 24.0 0.0
24.0 26.0 0.0
28.0 24.0 0.0
27.0 23.0 0.0
29.0 23.0 0.0
29.0 25.0 0.0
27.0 25.0 0.0
30.0 24.0 0.0
28.0 26.0 0.0
32.0 24.0 0.0
31.0 23.0 0.0
33.0 23.0 0.0
33.0 25.0 0.0
31.0 25.0 0.0
34.0 24.0 0.0
32.0 26.0 0.0
36.0 24.0 0.0
35.0 23.0 0.0
37.0 23.0 0.0
37.0 25.0 0.0
35.0 25.0 0.0
38.0 24.0 0.0
36.0 26.0 0.0
40.0 24.0 0.0
39.0 23.0 0.0
41.0 23.0 0.0
41.0 25.0 0.0
39.0 25.0 0.0
42.0 24.0 0.0
40.0 26.0 0.0
44.0 24.0 0.0
43.0 23.0 0.0
45.0 23.0 0.0
45.0 25.0 0.0
43.0 25.0 0.0
46.0 24.0 0.0
44.0 26.0 0.0
48.0 24.0 0.0
47.0 23.0 0.0
49.0 23.0 0.0
49.0 25.0 0.0
47.0 25.0 0.0
50.0 24.0 0.0
48.0 26.0 0.0
52.0 24.0 0.0
51.0 23.0 0.0
53.0 23.0 0.0
53.0 25.0 0.0
51.0 25.0 0.0
54.0 24.0 0.0
52.0 26.0 0.0
56.0 24.0 0.0
55.0 23.0 0.0
57.0 23.0 0.0
57.0 25.0 0.0
55.0 25.0 0.0
58.0 24.0 0.0
56.0 26.0 0.0
60.0 24.0 0.0
59.0 23.0 0.0
61.0 23.0 0.0
61.0 25.0 0.0
59.0 25.0 0.0
62.0 24.0 0.0
60.0 26.0 0.0
0.0 28.0 0.0
-1.0 27.0 0.0
1.0 27.0 0.0
1.0 29.0 0.0
-1.0 29.0 0.0
2.0 28.0 0.0
0.0 30.0 0.0
-2.0 28.0 0.0
4.0 28.0 0.0
3.0 27.0 0.0
5.0 27.0 0.0
5.0 29.0 0.0
3.0 29.0 0.0
6.0 28.0 0.0
4.0 30.0 0.0
8.0 28.0 0.0
7.0 27.0 0.0
9.0 27.0 0.0
9.0 29.0 0.0
7.0 29.0 0.0
10.0 28.0 0.0
8.0 30.0 0.0
12.0 28.0 0.0
11.0 27.0 0.0
13.0 27.0 0.0
13.0 29.0 0.0
11.0 29.0 0.0
14.0 28.0 0.0
12.0 30.0 0.0
16.0 28.0 0.0
15.0 27.0 0.0
17.0 27.0 0.0
17.0 29.0 0.0
15.0 29.0 0.0
18.0 28.0 0.0
16.0 30.0 0.0
20.0 28.0 0.0
19.0 27.0 0.0
21.0 27.0 0.0
21.0 29.0 0.0
19.0 29.0 0.0
22.0 28.0 0.0
20.0 30.0 0.0
24.0 28.0 0.0
23.0 27.0 0.0
25.0 27.0 0.0
25.0 29.0 0.0
23.0 29.0 0.0
26.0 28.0 0.0
24.0 30.0 0.0
28.0 28.0 0.0
27.0 27.0 0.0
29.0 27.0 0.0
29.0 29.0 0.0
27.0 29.0 0.0
30.0 28.0 0.0
28.0 30.0 0.0
32.0 28.0 0.0
31.0 27.0 0.0
33.0 27.0 0.0
33.0 29.0 0.0
31.0 29.0 0.0
34.0 28.0 0.0
32.0 30.0 0.0
36.0 28.0 0.0
35.0 27.0 0.0
37.0 27.0 0.0
37.0 29.0 0.0
35.0 29.0 0.0
38.0 28.0 0.0
36.0 30.0 0.0
40.0 28.0 0.0
39.0 27.0 0.0
41.0 27.0 0.0
41.0 29.0 0.0
39.0 29.0 0.0
42.0 28.0 0.0
40.0 30.0 0.0
44.0 28.0 0.0
43.0 27.0 0.0
45.0 27.0 0.0
45.0 29.0 0.0
43.0 29.0 0.0
46.0 28.0 0.0
44.0 30.0 0.0
48.0 28.0 0.0
47.0 27.0 0.0
49.0 27.0 0.0
49.0 29.0 0.0
47.0 29.0 0.0
50.0 28.0 0.0
48.0 30.0 0.0
52.0 28.0 0.0
51.0 27.0 0.0
53.0 27.0 0.0
53.0 29.0 0.0
51.0 29.0 0.0
54.0 28.0 0.0
52.0 30.0 0.0
56.0 28.0 0.0
55.0 27.0 0.0
57.0 27.0 0.0
57.0 29.0 0.0
55.0 29.0 0.0
58.0 28.0 0.0
56.0 30.0 0.0
60.0 28.0 0.0
59.0 27.0 0.0
61.0 27.0 0.0
61.0 29.0 0.0
59.0 29.0 0.0
62.0 28.0 0.0
60.0 30.0 0.0
0.0 32.0 0.0
-1.0 31.0 0.0
1.0 31.0 0.0
1.0 33.0 0.0
-1.0 33.0 0.0
2.0 32.0 0.0
0.0 34.0 0.0
-2.0 32.0 0.0
4.0 32.0 0.0
3.0 31.0 0.0
5.0 31.0 0.0
5.0 33.0 0.0
3.0 33.0 0.0
6.0 32.0 0.0
4.0 34.0 0.0
8.0 32.0 0.0
7.0 31.0 0.0
9.0 31.0 0.0
9.0 33.0 0.0
7.0 33.0 0.0
10.0 32.0 0.0
8.0 34.0 0.0
12.0 32.0 0.0
11.0 31.0 0.0
13.0 31.0 0.0
13.0 33.0 0.0
11.0 33.0 0.0
14.0 32.0 0.0
12.0 34.0 0.0
16.0 32.0 0.0
15.0 31.0 0.0
17.0 31.0 0.0
17.0 33.0 0.0
15.0 33.0 0.0
18.0 32.0 0.0
16.0 34.0 0.0
20.0 32.0 0.0
19.0 31.0 0.0
21.0 31.0 0.0
21.0 33.0 0.0
19.0 33.0 0.0
22.0 32.0 0.0
20.0 34.0 0.0
24.0 32.0 0.0
23.0 31.0 0.0
25.0 31.0 0.0
25.0 33.0 0.0
23.0 33.0 0.0
26.0 32.0 0.0
24.0 34.0 0.0
28.0 32.0 0.0
27.0 31.0 0.0
29.0 31.0 0.0
29.0 33.0 0.0
27.0 33.0 0.0
30.0 32.0 0.0
28.0 34.0 0.0
32.0 32.0 0.0
31.0 31.0 0.0
33.0 31.0 0.0
33.0 33.0 0.0
31.0 33.0 0.0
34.0 32.0 0.0
32.0 34.0 0.0
36.0 32.0 0.0
35.0 31.0 0.0
37.0 31.0 0.0
37.0 33.0 0.0
35.0 33.0 0.0
38.0 32.0 0.0
36.0 34.0 0.0
40.0 32.0 0.0
39.0 31.0 0.0
41.0 31.0 0.0
41.0 33.0 0.0
39.0 33.0 0.0
42.0 32.0 0.0
40.0 34.0 0.0
44.0 32.0 0.0
43.0 31.0 0.0
45.0 31.0 0.0
45.0 33.0 0.0
43.0 33.0 0.0
46.0 32.0 0.0
44.0 34.0 0.0
48.0 32.0 0.0
47.0 31.0 0.0
49.0 31.0 0.0
49.0 33.0 0.0
47.0 33.0 0.0
50.0 32.0 0.0
48.0 34.0 0.0
52.0 32.0 0.0
51.0 31.0 0.0
53.0 31.0 0.0
53.0 33.0 0.0
51.0 33.0 0.0
54.0 32.0 0.0
52.0 34.0 0.0
56.0 32.0 0.0
55.0 31.0 0.0
57.0 31.0 0.0
57.0 33.0 0.0
55.0 33.0 0.0
58.0 32.0 0.0
56.0 34.0 0.0
60.0 32.0 0.0
59.0 31.0 0.0
61.0 31.0 0.0
61.0 33.0 0.0
59.0 33.0 0.0
62.0 32.0 0.0
60.0 34.0 0.0
0.0 36.0 0.0
-1.0 35.0 0.0
1.0 35.0 0.0
1.0 37.0 0.0
-1.0 37.0 0.0
2.0 36.0 0.0
0.0 38.0 0.0
-2.0 36.0 0.0
4.0 36.0 0.0
3.0 35.0 0.0
5.0 35.0 0.0
5.0 37.0 0.0
3.0 37.0 0.0
6.0 36.0 0.0
4.0 38.0 0.0
8.0 36.0 0.0
7.0 35.0 0.0
9.0 35.0 0.0
9.0 37.0 0.0
7.0 37.0 0.0
10.0 36.0 0.0
8.0 38.0 0.0
12.0 36.0 0.0
11.0 35.0 0.0
13.0 35.0 0.0
13.0 37.0 0.0
11.0 37.0 0.0
14.0 36.0 0.0
12.0 38.0 0.0
16.0 36.0 0.0
15.0 35.0 0.0
17.0 35.0 0.0
17.0 37.0 0.0
15.0 37.0 0.0
18.0 36.0 0.0
16.0 38.0 0.0
20.0 36.0 0.0
19.0 35.0 0.0
21.0 35.0 0.0
21.0 37.0 0.0
19.0 37.0 0.0
22.0 36.0 0.0
20.0 38.0 0.0
24.0 36.0 0.0
23.0 35.0 0.0
25.0 35.0 0.0
25.0 37.0 0.0
23.0 37.0 0.0
26.0 36.0 0.0
24.0 38.0 0.0
28.0 36.0 0.0
27.0 35.0 0.0
29.0 35.0 0.0
29.0 37.0 0.0
27.0 37.0 0.0
30.0 36.0 0.0
28.0 38.0 0.0
32.0 36.0 0.0
31.0 35.0 0.0
33.0 35.0 0.0
33.0 37.0 0.0
31.0 37.0 0.0
34.0 36.0 0.0
32.0 38.0 0.0
36.0 36.0 0.0
35.0 35.0 0.0
37.0 35.0 0.0
37.0 37.0 0.0
35.0 37.0 0.0
38.0 36.0 0.0
36.0 38.0 0.0
40.0 36.0 0.0
39.0 35.0 0.0
41.0 35.0 0.0
41.0 37.0 0.0
39.0 37.0 0.0
42.0 36.0 0.0
40.0 38.0 0.0
44.0 36.0 0.0
43.0 35.0 0.0
45.0 35.0 0.0
45.0 37.0 0.0
43.0 37.0 0.0
46.0 36.0 0.0
44.0 38.0 0.0
48.0 36.0 0.0
47.0 35.0 0.0
49.0 35.0 0.0
49.0 37.0 0.0
47.0 37.0 0.0
50.0 36.0 0.0
48.0 38.0 0.0
52.0 36.0 0.0
51.0 35.0 0.0
53.0 35.0 0.0
53.0 37.0 0.0
51.0 37.0 0.0
54.0 36.0 0.0
52.0 38.0 0.0
56.0 36.0 0.0
55.0 35.0 0.0
57.0 35.0 0.0
57.0 37.0 0.0
55.0 37.0 0.0
58.0 36.0 0.0
56.0 38.0 0.0
60.0 36.0 0.0
59.0 35.0 0.0
61.0 35.0 0.0
61.0 37.0 0.0
59.0 37.0 0.0
62.0 36.0 0.0
60.0 38.0 0.0
0.0 40.0 0.0
-1.0 39.0 0.0
1.0 39.0 0.0
1.0 41.0 0.0
-1.0 41.0 0.0
2.0 40.0 0.0
0.0 42.0 0.0
-2.0 40.0 0.0
4.0 40.0 0.0
3.0 39.0 0.0
5.0 39.0 0.0
5.0 41.0 0.0
3.0 41.0 0.0
6.0 40.0 0.0
4.0 42.0 0.0
8.0 40.0 0.0
7.0 39.0 0.0
9.0 39.0 0.0
9.0 41.0 0.0
7.0 41.0 0.0
10.0 40.0 0.0
8.0 42.0 0.0
12.0 40.0 0.0
11.0 39.0 0.0
13.0 39.0 0.0
13.0 41.0 0.0
11.0 41.0 0.0
14.0 40.0 0.0
12.0 42.0 0.0
16.0 40.0 0.0
15.0 39.0 0.0
17.0 39.0 0.0
17.0 41.0 0.0
15.0 41.0 0.0
18.0 40.0 0.0
16.0 42.0 0.0
20.0 40.0 0.0
19.0 39.0 0.0
21.0 39.0 0.0
21.0 41.0 0.0
19.0 41.0 0.0
22.0 40.0 0.0
20.0 42.0 0.0
24.0 40.0 0.0
23.0 39.0 0.0
25.0 39.0 0.0
25.0 41.0 0.0
23.0 41.0 0.0
26.0 40.0 0.0
24.0 42.0 0.0
28.0 40.0 0.0
27.0 39.0 0.0
29.0 39.0 0.0
29.0 41.0 0.0
27.0 41.0 0.0
30.0 40.0 0.0
28.0 42.0 0.0
32.0 40.0 0.0
31.0 39.0 0.0
33.0 39.0 0.0
33.0 41.0 0.0
31.0 41.0 0.0
34.0 40.0 0.0
32.0 42.0 0.0
36.0 40.0 0.0
35.0 39.0 0.0
37.0 39.0 0.0
37.0 41.0 0.0
35.0 41.0 0.0
38.0 40.0 0.0
36.0 42.0 0.0
40.0 40.0 0.0
39.0 39.0 0.0
41.0 39.0 0.0
41.0 41.0 0.0
39.0 41.0 0.0
42.0 40.0 0.0
40.0 42.0 0.0
44.0 40.0 0.0
43.0 39.0 0.0
45.0 39.0 0.0
45.0 41.0 0.0
43.0 41.0 0.0
46.0 40.0 0.0
44.0 42.0 0.0
48.0 40.0 0.0
47.0 39.0 0.0
49.0 39.0 0.0
49.0 41.0 0.0
47.0 41.0 0.0
50.0 40.0 0.0
48.0 42.0 0.0
52.0 40.0 0.0
51.0 39.0 0.0
53.0 39.0 0.0
53.0 41.0 0.0
51.0 41.0 0.0
54.0 40.0 0.0
52.0 42.0 0.0
56.0 40.0 0.0
55.0 39.0 0.0
57.0 39.0 0.0
57.0 41.0 0.0
55.0 41.0 0.0
58.0 40.0 0.0
56.0 42.0 0.0
60.0 40.0 0.0
59.0 39.0 0.0
61.0 39.0 0.0
61.0 41.0 0.0
59.0 41.0 0.0
62.0 40.0 0.0
60.0 42.0 0.0
0.0 44.0 0.0
-1.0 43.0 0.0
1.0 43.0 0.0
1.0 45.0 0.0
-1.0 45.0 0.0
2.0 44.0 0.0
0.0 46.0 0.0
-2.0 44.0 0.0
4.0 44.0 0.0
3.0 43.0 0.0
5.0 43.0 0.0
5.0 45.0 0.0
3.0 45.0 0.0
6.0 44.0 0.0
4.0 46.0 0.0
8.0 44.0 0.0
7.0 43.0 0.0
9.0 43.0 0.0
9.0 45.0 0.0
7.0 45.0 0.0
10.0 44.0 0.0
8.0 46.0 0.0
12.0 44.0 0.0
11.0 43.0 0.0
13.0 43.0 0.0
13.0 45.0 0.0
11.0 45.0 0.0
14.0 44.0 0.0
12.0 46.0 0.0
16.0 44.0 0.0
15.0 43.0 0.0
17.0 43.0 0.0
17.0 45.0 0.0
15.0 45.0 0.0
18.0 44.0 0.0
16.0 46.0 0.0
20.0 44.0 0.0
19.0 43.0 0.0
21.0 43.0 0.0
21.0 45.0 0.0
19.0 45.0 0.0
22.0 44.0 0.0
20.0 46.0 0.0
24.0 44.0 0.0
23.0 43.0 0.0
25.0 43.0 0.0
25.0 45.0 0.0
23.0 45.0 0.0
26.0 44.0 0.0
24.0 46.0 0.0
28.0 44.0 0.0
27.0 43.0 0.0
29.0 43.0 0.0
29.0 45.0 0.0
27.0 45.0 0.0
30.0 44.0 0.0
28.0 46.0 0.0
32.0 44.0 0.0
31.0 43.0 0.0
33.0 43.0 0.0
33.0 45.0 0.0
31.0 45.0 0.0
34.0 44.0 0.0
32.0 46.0 0.0
36.0 44.0 0.0
35.0 43.0 0.0
37.0 43.0 0.0
37.0 45.0 0.0
35.0 45.0 0.0
38.0 44.0 0.0
36.0 46.0 0.0
40.0 44.0 0.0
39.0 43.0 0.0
41.0 43.0 0.0
41.0 45.0 0.0
39.0 45.0 0.0
42.0 44.0 0.0
40.0 46.0 0.0
44.0 44.0 0.0
43.0 43.0 0.0
45.0 43.0 0.0
45.0 45.0 0.0
43.0 45.0 0.0
46.0 44.0 0.0
44.0 46.0 0.0
48.0 44.0 0.0
47.0 43.0 0.0
49.0 43.0 0.0
49.0 45.0 0.0
47.0 45.0 0.0
50.0 44.0 0.0
48.0 46.0 0.0
52.0 44.0 0.0
51.0 43.0 0.0
53.0 43.0 0.0
53.0 45.0 0.0
51.0 45.0 0.0
54.0 44.0 0.0
52.0 46.0 0.0
56.0 44.0 0.0
55.0 43.0 0.0
57.0 43.0 0.0
57.0 45.0 0.0
55.0 45.0 0.0
58.0 44.0 0.0
56.0 46.0 0.0
60.0 44.0 0.0
59.0 43.0 0.0
61.0 43.0 0.0
61.0 45.0 0.0
59.0 45.0 0.0
62.0 44.0 0.0
60.0 46.0 0.0
0.0 48.0 0.0
-1.0 47.0 0.0
1.0 47.0 0.0
1.0 49.0 0.0
-1.0 49.0 0.0
2.0 48.0 0.0
0.0 50.0 0.0
-2.0 48.0 0.0
4.0 48.0 0.0
3.0 47.0 0.0
5.0 47.0 0.0
5.0 49.0 0.0
3.0 49.0 0.0
6.0 48.0 0.0
4.0 50.0 0.0
8.0 48.0 0.0
7.0 47.0 0.0
9.0 47.0 0.0
9.0 49.0 0.0
7.0 49.0 0.0
10.0 48.0 0.0
8.0 50.0 0.0
12.0 48.0 0.0
11.0 47.0 0.0
13.0 47.0 0.0
13.0 49.0 0.0
11.0 49.0 0.0
14.0 48.0 0.0
12.0 50.0 0.0
16.0 48.0 0.0
15.0 47.0 0.0
17.0 47.0 0.0
17.0 49.0 0.0
15.0 49.0 0.0
18.0 48.0 0.0
16.0 50.0 0.0
20.0 48.0 0.0
19.0 47.0 0.0
21.0 47.0 0.0
21.0 49.0 0.0
19.0 49.0 0.0
22.0 48.0 0.0
20.0 50.0 0.0
24.0 48.0 0.0
23.0 47.0 0.0
25.0 47.0 0.0
25.0 49.0 0.0
23.0 49.0 0.0
26.0 48.0 0.0
24.0 50.0 0.0
28.0 48.0 0.0
27.0 47.0 0.0
29.0 47.0 0.0
29.0 49.0 0.0
27.0 49.0 0.0
30.0 48.0 0.0
28.0 50.0 0.0
32.0 48.0 0.0
31.0 47.0 0.0
33.0 47.0 0.0
33.0 49.0 0.0
31.0 49.0 0.0
34.0 48.0 0.0
32.0 50.0 0.0
36.0 48.0 0.0
35.0 47.0 0.0
37.0 47.0 0.0
37.0 49.0 0.0
35.0 49.0 0.0
38.0 48.0 0.0
36.0 50.0 0.0
40.0 48.0 0.0
39.0 47.0 0.0
41.0 47.0 0.0
41.0 49.0 0.0
39.0 49.0 0.0
42.0 48.0 0.0
40.0 50.0 0.0
44.0 48.0 0.0
43.0 47.0 0.0
45.0 47.0 0.0
45.0 49.0 0.0
43.0 49.0 0.0
46.0 48.0 0.0
44.0 50.0 0.0
48.0 48.0 0.0
47.0 47.0 0.0
49.0 47.0 0.0
49.0 49.0 0.0
47.0 49.0 0.0
50.0 48.0 0.0
48.0 50.0 0.0
52.0 48.0 0.0
51.0 47.0 0.0
53.0 47.0 0.0
53.0 49.0 0.0
51.0 49.0 0.0
54.0 48.0 0.0
52.0 50.0 0.0
56.0 48.0 0.0
55.0 47.0 0.0
57.0 47.0 0.0
57.0 49.0 0.0
55.0 49.0 0.0
58.0 48.0 0.0
56.0 50.0 0.0
60.0 48.0 0.0
59.0 47.0 0.0
61.0 47.0 0.0
61.0 49.0 0.0
59.0 49.0 0.0
62.0 48.0 0.0
60.0 50.0 0.0
0.0 52.0 0.0
-1.0 51.0 0.0
1.0 51.0 0.0
1.0 53.0 0.0
-1.0 53.0 0.0
2.0 52.0 0.0
0.0 54.0 0.0
-2.0 52.0 0.0
4.0 52.0 0.0
3.0 51.0 0.0
5.0 51.0 0.0
5.0 53.0 0.0
3.0 53.0 0.0
6.0 52.0 0.0
4.0 54.0 0.0
8.0 52.0 0.0
7.0 51.0 0.0
9.0 51.0 0.0
9.0 53.0 0.0
7.0 53.0 0.0
10.0 52.0 0.0
8.0 54.0 0.0
12.0 52.0 0.0
11.0 51.0 0.0
13.0 51.0 0.0
13.0 53.0 0.0
11.0 53.0 0.0
14.0 52.0 0.0
12.0 54.0 0.0
16.0 52.0 0.0
15.0 51.0 0.0
17.0 51.0 0.0
17.0 53.0 0.0
15.0 53.0 0.0
18.0 52.0 0.0
16.0 54.0 0.0
20.0 52.0 0.0
19.0 51.0 0.0
21.0 51.0 0.0
21.0 53.0 0.0
19.0 53.0 0.0
22.0 52.0 0.0
20.0 54.0 0.0
24.0 52.0 0.0
23.0 51.0 0.0
25.0 51.0 0.0
25.0 53.0 0.0
23.0 53.0 0.0
26.0 52.0 0.0
24.0 54.0 0.0
28.0 52.0 0.0
27.0 51.0 0.0
29.0 51.0 0.0
29.0 53.0 0.0
27.0 53.0 0.0
30.0 52.0 0.0
28.0 54.0 0.0
32.0 52.0 0.0
31.0 51.0 0.0
33.0 51.0 0.0
33.0 53.0 0.0
31.0 53.0 0.0
34.0 52.0 0.0
32.0 54.0 0.0
36.0 52.0 0.0
35.0 51.0 0.0
37.0 51.0 0.0
37.0 53.0 0.0
35.0 53.0 0.0
38.0 52.0 0.0
36.0 54.0 0.0
40.0 52.0 0.0
39.0 51.0 0.0
41.0 51.0 0.0
41.0 53.0 0.0
39.0 53.0 0.0
42.0 52.0 0.0
40.0 54.0 0.0
44.0 52.0 0.0
43.0 51.0 0.0
45.0 51.0 0.0
45.0 53.0 0.0
43.0 53.0 0.0
46.0 52.0 0.0
44.0 54.0 0.0
48.0 52.0 0.0
47.0 51.0 0.0
49.0 51.0 0.0
49.0 53.0 0.0
47.0 53.0 0.0
50.0 52.0 0.0
48.0 54.0 0.0
52.0 52.0 0.0
51.0 51.0 0.0
53.0 51.0 0.0
53.0 53.0 0.0
51.0 53.0 0.0
54.0 52.0 0.0
52.0 54.0 0.0
56.0 52.0 0.0
55.0 51.0 0.0
57.0 51.0 0.0
57.0 53.0 0.0
55.0 53.0 0.0
58.0 52.0 0.0
56.0 54.0 0.0
60.0 52.0 0.0
59.0 51.0 0.0
61.0 51.0 0.0
61.0 53.0 0.0
59.0 53.0 0.0
62.0 52.0 0.0
60.0 54.0 0.0
0.0 56.0 0.0
-1.0 55.0 0.0
1.0 55.0 0.0
1.0 57.0 0.0
-1.0 57.0 0.0
2.0 56.0 0.0
0.0 58.0 0.0
-2.0 56.0 0.0
4.0 56.0 0.0
3.0 55.0 0.0
5.0 55.0 0.0
5.0 57.0 0.0
3.0 57.0 0.0
6.0 56.0 0.0
4.0 58.0 0.0
8.0 56.0 0.0
7.0 55.0 0.0
9.0 55.0 0.0
9.0 57.0 0.0
7.0 57.0 0.0
10.0 56.0 0.0
8.0 58.0 0.0
12.0 56.0 0.0
11.0 55.0 0.0
13.0 55.0 0.0
13.0 57.0 0.0
11.0 57.0 0.0
14.0 56.0 0.0
12.0 58.0 0.0
16.0 56.0 0.0
15.0 55.0 0.0
17.0 55.0 0.0
17.0 57.0 0.0
15.0 57.0 0.0
18.0 56.0 0.0
16.0 58.0 0.0
20.0 56.0 0.0
19.0 55.0 0.0
21.0 55.0 0.0
21.0 57.0 0.0
19.0 57.0 0.0
22.0 56.0 0.0
20.0 58.0 0.0
24.0 56.0 0.0
23.0 55.0 0.0
25.0 55.0 0.0
25.0 57.0 0.0
23.0 57.0 0.0
26.0 56.0 0.0
24.0 58.0 0.0
28.0 56.0 0.0
27.0 55.0 0.0
29.0 55.0 0.0
29.0 57.0 0.0
27.0 57.0 0.0
30.0 56.0 0.0
28.0 58.0 0.0
32.0 56.0 0.0
31.0 55.0 0.0
33.0 55.0 0.0
33.0 57.0 0.0
31.0 57.0 0.0
34.0 56.0 0.0
32.0 58.0 0.0
36.0 56.0 0.0
35.0 55.0 0.0
37.0 55.0 0.0
37.0 57.0 0.0
35.0 57.0 0.0
38.0 56.0 0.0
36.0 58.0 0.0
40.0 56.0 0.0
39.0 55.0 0.0
41.0 55.0 0.0
41.0 57.0 0.0
39.0 57.0 0.0
42.0 56.0 0.0
40.0 58.0 0.0
44.0 56.0 0.0
43.0 55.0 0.0
45.0 55.0 0.0
45.0 57.0 0.0
43.0 57.0 0.0
46.0 56.0 0.0
44.0 58.0 0.0
48.0 56.0 0.0
47.0 55.0 0.0
49.0 55.0 0.0
49.0 57.0 0.0
47.0 57.0 0.0
50.0 56.0 0.0
48.0 58.0 0.0
52.0 56.0 0.0
51.0 55.0 0.0
53.0 55.0 0.0
53.0 57.0 0.0
51.0 57.0 0.0
54.0 56.0 0.0
52.0 58.0 0.0
56.0 56.0 0.0
55.0 55.0 0.0
57.0 55.0 0.0
57.0 57.0 0.0
55.0 57.0 0.0
58.0 56.0 0.0
56.0 58.0 0.0
60.0 56.0 0.0
59.0 55.0 0.0
61.0 55.0 0.0
61.0 57.0 0.0
59.0 57.0 0.0
62.0 56.0 0.0
60.0 58.0 0.0
0.0 60.0 0.0
-1.0 59.0 0.0
1.0 59.0 0.0
1.0 61.0 0.0
-1.0 61.0 0.0
2.0 60.0 0.0
0.0 62.0 0.0
-2.0 60.0 0.0
4.0 60.0 0.0
3.0 59.0 0.0
5.0 59.0 0.0
5.0 61.0 0.0
3.0 61.0 0.0
6.0 60.0 0.0
4.0 62.0 0.0
8.0 60.0 0.0
7.0 59.0 0.0
9.0 59.0 0.0
9.0 61.0 0.0
7.0 61.0 0.0
10.0 60.0 0.0
8.0 62.0 0.0
12.0 60.0 0.0
11.0 59.0 0.0
13.0 59.0 0.0
13.0 61.0 0.0
11.0 61.0 0.0
14.0 60.0 0.0
12.0 62.0 0.0
16.0 60.0 0.0
15.0 59.0 0.0
17.0 59.0 0.0
17.0 61.0 0.0
15.0 61.0 0.0
18.0 60.0 0.0
16.0 62.0 0.0
20.0 60.0 0.0
19.0 59.0 0.0
21.0 59.0 0.0
21.0 61.0 0.0
19.0 61.0 0.0
22.0 60.0 0.0
20.0 62.0 0.0
24.0 60.0 0.0
23.0 59.0 0.0
25.0 59.0 0.0
25.0 61.0 0.0
23.0 61.0 0.0
26.0 60.0 0.0
24.0 62.0 0.0
28.0 60.0 0.0
27.0 59.0 0.0
29.0 59.0 0.0
29.0 61.0 0.0
27.0 61.0 0.0
30.0 60.0 0.0
28.0 62.0 0.0
32.0 60.0 0.0
31.0 59.0 0.0
33.0 59.0 0.0
33.0 61.0 0.0
31.0 61.0 0.0
34.0 60.0 0.0
32.0 62.0 0.0
36.0 60.0 0.0
35.0 59.0 0.0
37.0 59.0 0.0
37.0 61.0 0.0
35.0 61.0 0.0
38.0 60.0 0.0
36.0 62.0 0.0
40.0 60.0 0.0
39.0 59.0 0.0
41.0 59.0 0.0
41.0 61.0 0.0
39.0 61.0 0.0
42.0 60.0 0.0
40.0 62.0 0.0
44.0 60.0 0.0
43.0 59.0 0.0
45.0 59.0 0.0
45.0 61.0 0.0
43.0 61.0 0.0
46.0 60.0 0.0
44.0 62.0 0.0
48.0 60.0 0.0
47.0 59.0 0.0
49.0 59.0 0.0
49.0 61.0 0.0
47.0 61.0 0.0
50.0 60.0 0.0
48.0 62.0 0.0
52.0 60.0 0.0
51.0 59.0 0.0
53.0 59.0 0.0
53.0 61.0 0.0
51.0 61.0 0.0
54.0 60.0 0.0
52.0 62.0 0.0
56.0 60.0 0.0
55.0 59.0 0.0
57.0 59.0 0.0
57.0 61.0 0.0
55.0 61.0 0.0
58.0 60.0 0.0
56.0 62.0 0.0
60.0 60.0 0.0
59.0 59.0 0.0
61.0 59.0 0.0
61.0 61.0 0.0
59.0 61.0 0.0
62.0 60.0 0.0
60.0 62.0 0.0
2 3 4 5 
1 9 
1 6 
1 7 
1 8 
3 
11 4 
132 5 
2 
11 12 13 14 
10 7 
10 15 
10 16 
17 10 
12 
19 13 
140 14 
19 20 21 22 
18 16 
18 23 
18 24 
25 18 
20 
27 21 
147 22 
27 28 29 30 
26 24 
26 31 
26 32 
33 26 
28 
35 29 
154 30 
35 36 37 38 
34 32 
34 39 
34 40 
41 34 
36 
43 37 
161 38 
43 44 45 46 
42 40 
42 47 
42 48 
49 42 
44 
51 45 
46 168 
51 52 53 54 
50 48 
50 55 
50 56 
57 50 
52 
59 53 
54 175 
59 60 61 62 
58 56 
58 63 
58 64 
65 58 
60 
67 61 
62 182 
67 68 69 70 
66 64 
66 71 
66 72 
73 66 
68 
75 69 
189 70 
75 76 77 78 
74 72 
74 79 
74 80 
81 74 
76 
83 77 
196 78 
83 84 85 86 
82 80 
82 87 
82 88 
89 82 
84 
91 85 
203 86 
91 92 93 94 
90 88 
90 95 
90 96 
97 90 
92 
99 93 
210 94 
99 100 101 102 
98 96 
98 103 
98 104 
105 98 
100 
107 101 
217 102 
107 108 109 110 
106 104 
106 111 
106 112 
113 106 
108 
115 109 
110 224 
115 116 117 118 
114 112 
114 119 
114 120 
121 114 
116 
123 117 
118 231 
123 124 125 126 
122 120 
122 127 
122 128 
129 122 
124 
125 
238 126 
131 132 133 134 
137 130 
130 8 
130 135 
130 136 
139 133 
245 134 
131 
139 140 141 142 
138 135 
17 138 
138 143 
138 144 
146 141 
253 142 
146 147 148 149 
145 143 
145 25 
145 150 
145 151 
153 148 
260 149 
153 154 155 156 
150 152 
33 152 
157 152 
158 152 
155 160 
267 156 
161 162 163 160 
157 159 
41 159 
164 159 
165 159 
162 167 
274 163 
169 170 167 168 
164 166 
49 166 
171 166 
172 166 
169 174 
281 170 
177 174 175 176 
171 173 
57 173 
178 173 
179 173 
181 176 
177 288 
181 182 183 184 
178 180 
65 180 
185 180 
186 180 
188 183 
295 184 
188 189 190 191 
185 187 
73 187 
187 192 
193 187 
195 190 
302 191 
195 196 197 198 
194 192 
81 194 
194 199 
194 200 
202 197 
309 198 
202 203 204 205 
201 199 
201 89 
201 206 
201 207 
209 204 
316 205 
209 210 211 212 
206 208 
97 208 
213 208 
214 208 
211 216 
323 212 
217 218 219 216 
213 215 
105 215 
220 215 
221 215 
218 223 
330 219 
225 226 223 224 
220 222 
113 222 
227 222 
228 222 
225 230 
337 226 
233 230 231 232 
227 229 
121 229 
234 229 
235 229 
237 232 
233 344 
237 238 239 240 
234 236 
129 236 
241 236 
242 236 
239 
351 240 
244 245 246 247 
250 243 
243 136 
243 248 
249 243 
252 246 
358 247 
244 
252 253 254 255 
251 248 
251 144 
251 256 
257 251 
259 254 
366 255 
259 260 261 262 
258 256 
258 151 
258 263 
258 264 
266 261 
373 262 
266 267 268 269 
265 263 
265 158 
265 270 
265 271 
273 268 
380 269 
273 274 275 276 
270 272 
165 272 
277 272 
278 272 
275 280 
387 276 
281 282 283 280 
277 279 
172 279 
284 279 
285 279 
282 287 
394 283 
289 290 287 288 
284 286 
179 286 
291 286 
292 286 
289 294 
401 290 
297 294 295 296 
291 293 
186 293 
298 293 
299 293 
301 296 
297 408 
301 302 303 304 
298 300 
193 300 
305 300 
306 300 
308 303 
415 304 
308 309 310 311 
305 307 
307 200 
307 312 
313 307 
315 310 
422 311 
315 316 317 318 
314 312 
314 207 
314 319 
314 320 
322 317 
429 318 
322 323 324 325 
321 319 
321 214 
321 326 
321 327 
329 324 
436 325 
329 330 331 332 
326 328 
221 328 
333 328 
334 328 
331 336 
443 332 
337 338 339 336 
333 335 
228 335 
340 335 
341 335 
338 343 
450 339 
345 346 343 344 
340 342 
235 342 
347 342 
348 342 
345 350 
457 346 
353 350 351 352 
347 349 
242 349 
354 349 
355 349 
352 
353 464 
357 358 359 360 
363 356 
249 356 
361 356 
362 356 
365 359 
471 360 
357 
365 366 367 368 
361 364 
257 364 
369 364 
370 364 
372 367 
479 368 
372 373 374 375 
369 371 
371 264 
371 376 
377 371 
379 374 
486 375 
379 380 381 382 
378 376 
378 271 
378 383 
378 384 
386 381 
493 382 
386 387 388 389 
385 383 
385 278 
385 390 
385 391 
393 388 
500 389 
393 394 395 396 
390 392 
285 392 
397 392 
398 392 
395 400 
507 396 
401 402 403 400 
397 399 
292 399 
404 399 
405 399 
402 407 
514 403 
409 410 407 408 
404 406 
299 406 
411 406 
412 406 
409 414 
521 410 
417 414 415 416 
411 413 
306 413 
418 413 
419 413 
421 416 
417 528 
421 422 423 424 
418 420 
313 420 
425 420 
426 420 
428 423 
535 424 
428 429 430 431 
425 427 
427 320 
427 432 
433 427 
435 430 
542 431 
435 436 437 438 
434 432 
434 327 
434 439 
434 440 
442 437 
549 438 
442 443 444 445 
441 439 
441 334 
441 446 
441 447 
449 444 
556 445 
449 450 451 452 
446 448 
341 448 
453 448 
454 448 
451 456 
563 452 
457 458 459 456 
453 455 
348 455 
460 455 
461 455 
458 463 
570 459 
465 466 463 464 
460 462 
355 462 
467 462 
468 462 
465 
577 466 
473 470 471 472 
476 469 
362 469 
474 469 
475 469 
478 472 
473 584 
470 
481 478 479 480 
474 477 
370 477 
482 477 
483 477 
485 480 
481 592 
485 486 487 488 
482 484 
377 484 
489 484 
490 484 
492 487 
599 488 
492 493 494 495 
489 491 
491 384 
491 496 
497 491 
499 494 
606 495 
499 500 501 502 
498 496 
498 391 
498 503 
498 504 
506 501 
613 502 
506 507 508 509 
505 503 
505 398 
505 510 
505 511 
513 508 
620 509 
513 514 515 516 
510 512 
405 512 
517 512 
518 512 
515 520 
627 516 
521 522 523 520 
517 519 
412 519 
524 519 
525 519 
522 527 
634 523 
529 530 527 528 
524 526 
419 526 
531 526 
532 526 
529 534 
641 530 
537 534 535 536 
531 533 
426 533 
538 533 
539 533 
541 536 
537 648 
541 542 543 544 
538 540 
433 540 
545 540 
546 540 
548 543 
655 544 
548 549 550 551 
545 547 
547 440 
547 552 
553 547 
555 550 
662 551 
555 556 557 558 
554 552 
554 447 
554 559 
554 560 
562 557 
669 558 
562 563 564 565 
561 559 
561 454 
561 566 
561 567 
569 564 
676 565 
569 570 571 572 
566 568 
461 568 
573 568 
574 568 
571 576 
683 572 
577 578 579 576 
573 575 
468 575 
580 575 
581 575 
578 
690 579 
585 586 583 584 
589 582 
475 582 
587 582 
588 582 
585 591 
697 586 
583 
593 594 591 592 
587 590 
483 590 
595 590 
596 590 
593 598 
705 594 
601 598 599 600 
595 597 
490 597 
602 597 
603 597 
605 600 
601 712 
605 606 607 608 
602 604 
497 604 
609 604 
610 604 
612 607 
719 608 
612 613 614 615 
609 611 
611 504 
611 616 
617 611 
619 614 
726 615 
619 620 621 622 
618 616 
618 511 
618 623 
618 624 
626 621 
733 622 
626 627 628 629 
625 623 
625 518 
625 630 
625 631 
633 628 
740 629 
633 634 635 636 
630 632 
525 632 
637 632 
638 632 
635 640 
747 636 
641 642 643 640 
637 639 
532 639 
644 639 
645 639 
642 647 
754 643 
649 650 647 648 
644 646 
539 646 
651 646 
652 646 
649 654 
761 650 
657 654 655 656 
651 653 
546 653 
658 653 
659 653 
661 656 
657 768 
661 662 663 664 
658 660 
553 660 
665 660 
666 660 
668 663 
775 664 
668 669 670 671 
665 667 
667 560 
667 672 
673 667 
675 670 
782 671 
675 676 677 678 
674 672 
674 567 
674 679 
674 680 
682 677 
789 678 
682 683 684 685 
681 679 
681 574 
681 686 
681 687 
689 684 
796 685 
689 690 691 692 
686 688 
581 688 
693 688 
694 688 
691 
803 692 
697 698 699 696 
702 695 
588 695 
700 695 
701 695 
698 704 
810 699 
696 
705 706 707 704 
700 703 
596 703 
708 703 
709 703 
706 711 
818 707 
713 714 711 712 
708 710 
603 710 
715 710 
716 710 
713 718 
825 714 
721 718 719 720 
715 717 
610 717 
722 717 
723 717 
725 720 
721 832 
725 726 727 728 
722 724 
617 724 
729 724 
730 724 
732 727 
839 728 
732 733 734 735 
729 731 
731 624 
731 736 
737 731 
739 734 
846 735 
739 740 741 742 
738 736 
738 631 
738 743 
738 744 
746 741 
853 742 
746 747 748 749 
745 743 
745 638 
745 750 
745 751 
753 748 
860 749 
753 754 755 756 
750 752 
645 752 
757 752 
758 752 
755 760 
867 756 
761 762 763 760 
757 759 
652 759 
764 759 
765 759 
762 767 
874 763 
769 770 767 768 
764 766 
659 766 
771 766 
772 766 
769 774 
881 770 
777 774 775 776 
771 773 
666 773 
778 773 
779 773 
781 776 
777 888 
781 782 783 784 
778 780 
673 780 
785 780 
786 780 
788 783 
895 784 
788 789 790 791 
785 787 
787 680 
787 792 
793 787 
795 790 
902 791 
795 796 797 798 
794 792 
794 687 
794 799 
794 800 
802 797 
909 798 
802 803 804 805 
801 799 
801 694 
801 806 
801 807 
804 
916 805 
809 810 811 812 
815 808 
701 808 
813 808 
814 808 
817 811 
923 812 
809 
817 818 819 820 
813 816 
709 816 
821 816 
822 816 
819 824 
931 820 
825 826 827 824 
821 823 
716 823 
828 823 
829 823 
826 831 
938 827 
833 834 831 832 
828 830 
723 830 
835 830 
836 830 
833 838 
945 834 
841 838 839 840 
835 837 
730 837 
842 837 
843 837 
845 840 
841 952 
845 846 847 848 
842 844 
737 844 
849 844 
850 844 
852 847 
959 848 
852 853 854 855 
849 851 
851 744 
851 856 
857 851 
859 854 
966 855 
859 860 861 862 
858 856 
858 751 
858 863 
858 864 
866 861 
973 862 
866 867 868 869 
865 863 
865 758 
865 870 
865 871 
873 868 
980 869 
873 874 875 876 
870 872 
765 872 
877 872 
878 872 
875 880 
987 876 
881 882 883 880 
877 879 
772 879 
884 879 
885 879 
882 887 
994 883 
889 890 887 888 
884 886 
779 886 
891 886 
892 886 
889 894 
1001 890 
897 894 895 896 
891 893 
786 893 
898 893 
899 893 
901 896 
897 1008 
901 902 903 904 
898 900 
793 900 
905 900 
906 900 
908 903 
1015 904 
908 909 910 911 
905 907 
907 800 
907 912 
913 907 
915 910 
1022 911 
915 916 917 918 
914 912 
914 807 
914 919 
914 920 
917 
1029 918 
922 923 924 925 
921 928 
921 814 
921 926 
921 927 
930 924 
1036 925 
922 
930 931 932 933 
929 926 
929 822 
929 934 
929 935 
937 932 
1044 933 
937 938 939 940 
934 936 
829 936 
941 936 
942 936 
939 944 
1051 940 
945 946 947 944 
941 943 
836 943 
948 943 
949 943 
946 951 
1058 947 
953 954 951 952 
948 950 
843 950 
955 950 
956 950 
953 958 
1065 954 
961 958 959 960 
955 957 
850 957 
962 957 
963 957 
965 960 
961 1072 
965 966 967 968 
962 964 
857 964 
969 964 
970 964 
972 967 
1079 968 
972 973 974 975 
969 971 
971 864 
971 976 
977 971 
979 974 
1086 975 
979 980 981 982 
978 976 
978 871 
978 983 
978 984 
986 981 
1093 982 
986 987 988 989 
985 983 
985 878 
985 990 
985 991 
993 988 
1100 989 
993 994 995 996 
990 992 
885 992 
997 992 
998 992 
995 1000 
1107 996 
1001 1002 1003 1000 
997 999 
892 999 
1004 999 
1005 999 
1002 1007 
1114 1003 
1009 1010 1007 1008 
1004 1006 
899 1006 
1011 1006 
1012 1006 
1009 1014 
1121 1010 
1017 1014 1015 1016 
1011 1013 
906 1013 
1018 1013 
1019 1013 
1021 1016 
1017 1128 
1021 1022 1023 1024 
1018 1020 
913 1020 
1025 1020 
1026 1020 
1028 1023 
1135 1024 
1028 1029 1030 1031 
1025 1027 
1027 920 
1027 1032 
1033 1027 
1030 
1142 1031 
1035 1036 1037 1038 
1041 1034 
1034 927 
1034 1039 
1034 1040 
1043 1037 
1149 1038 
1035 
1043 1044 1045 1046 
1042 1039 
1042 935 
1042 1047 
1042 1048 
1050 1045 
1157 1046 
1050 1051 1052 1053 
1049 1047 
1049 942 
1049 1054 
1049 1055 
1057 1052 
1164 1053 
1057 1058 1059 1060 
1054 1056 
949 1056 
1061 1056 
1062 1056 
1059 1064 
1171 1060 
1065 1066 1067 1064 
1061 1063 
956 1063 
1068 1063 
1069 1063 
1066 1071 
1178 1067 
1073 1074 1071 1072 
1068 1070 
963 1070 
1075 1070 
1076 1070 
1073 1078 
1185 1074 
1081 1078 1079 1080 
1075 1077 
970 1077 
1082 1077 
1083 1077 
1085 1080 
1081 1192 
1085 1086 1087 1088 
1082 1084 
977 1084 
1089 1084 
1090 1084 
1092 1087 
1199 1088 
1092 1093 1094 1095 
1089 1091 
1091 984 
1091 1096 
1097 1091 
1099 1094 
1206 1095 
1099 1100 1101 1102 
1098 1096 
1098 991 
1098 1103 
1098 1104 
1106 1101 
1213 1102 
1106 1107 1108 1109 
1105 1103 
1105 998 
1105 1110 
1105 1111 
1113 1108 
1220 1109 
1113 1114 1115 1116 
1110 1112 
1005 1112 
1117 1112 
1118 1112 
1115 1120 
1227 1116 
1121 1122 1123 1120 
1117 1119 
1012 1119 
1124 1119 
1125 1119 
1122 1127 
1234 1123 
1129 1130 1127 1128 
1124 1126 
1019 1126 
1131 1126 
1132 1126 
1129 1134 
1241 1130 
1137 1134 1135 1136 
1131 1133 
1026 1133 
1138 1133 
1139 1133 
1141 1136 
1137 1248 
1141 1142 1143 1144 
1138 1140 
1033 1140 
1145 1140 
1146 1140 
1143 
1255 1144 
1148 1149 1150 1151 
1154 1147 
1147 1040 
1147 1152 
1153 1147 
1156 1150 
1262 1151 
1148 
1156 1157 1158 1159 
1155 1152 
1155 1048 
1155 1160 
1161 1155 
1163 1158 
1270 1159 
1163 1164 1165 1166 
1162 1160 
1162 1055 
1162 1167 
1162 1168 
1170 1165 
1277 1166 
1170 1171 1172 1173 
1169 1167 
1169 1062 
1169 1174 
1169 1175 
1177 1172 
1284 1173 
1177 1178 1179 1180 
1174 1176 
1069 1176 
1181 1176 
1182 1176 
1179 1184 
1291 1180 
1185 1186 1187 1184 
1181 1183 
1076 1183 
1188 1183 
1189 1183 
1186 1191 
1298 1187 
1193 1194 1191 1192 
1188 1190 
1083 1190 
1195 1190 
1196 1190 
1193 1198 
1305 1194 
1201 1198 1199 1200 
1195 1197 
1090 1197 
1202 1197 
1203 1197 
1205 1200 
1201 1312 
1205 1206 1207 1208 
1202 1204 
1097 1204 
1209 1204 
1210 1204 
1212 1207 
1319 1208 
1212 1213 1214 1215 
1209 1211 
1211 1104 
1211 1216 
1217 1211 
1219 1214 
1326 1215 
1219 1220 1221 1222 
1218 1216 
1218 1111 
1218 1223 
1218 1224 
1226 1221 
1333 1222 
1226 1227 1228 1229 
1225 1223 
1225 1118 
1225 1230 
1225 1231 
1233 1228 
1340 1229 
1233 1234 1235 1236 
1230 1232 
1125 1232 
1237 1232 
1238 1232 
1235 1240 
1347 1236 
1241 1242 1243 1240 
1237 1239 
1132 1239 
1244 1239 
1245 1239 
1242 1247 
1354 1243 
1249 1250 1247 1248 
1244 1246 
1139 1246 
1251 1246 
1252 1246 
1249 1254 
1361 1250 
1257 1254 1255 1256 
1251 1253 
1146 1253 
1258 1253 
1259 1253 
1256 
1257 1368 
1261 1262 1263 1264 
1267 1260 
1153 1260 
1265 1260 
1266 1260 
1269 1263 
1375 1264 
1261 
1269 1270 1271 1272 
1265 1268 
1161 1268 
1273 1268 
1274 1268 
1276 1271 
1383 1272 
1276 1277 1278 1279 
1273 1275 
1275 1168 
1275 1280 
1281 1275 
1283 1278 
1390 1279 
1283 1284 1285 1286 
1282 1280 
1282 1175 
1282 1287 
1282 1288 
1290 1285 
1397 1286 
1290 1291 1292 1293 
1289 1287 
1289 1182 
1289 1294 
1289 1295 
1297 1292 
1404 1293 
1297 1298 1299 1300 
1294 1296 
1189 1296 
1301 1296 
1302 1296 
1299 1304 
1411 1300 
1305 1306 1307 1304 
1301 1303 
1196 1303 
1308 1303 
1309 1303 
1306 1311 
1418 1307 
1313 1314 1311 1312 
1308 1310 
1203 1310 
1315 1310 
1316 1310 
1313 1318 
1425 1314 
1321 1318 1319 1320 
1315 1317 
1210 1317 
1322 1317 
1323 1317 
1325 1320 
1321 1432 
1325 1326 1327 1328 
1322 1324 
1217 1324 
1329 1324 
1330 1324 
1332 1327 
1439 1328 
1332 1333 1334 1335 
1329 1331 
1331 1224 
1331 1336 
1337 1331 
1339 1334 
1446 1335 
1339 1340 1341 1342 
1338 1336 
1338 1231 
1338 1343 
1338 1344 
1346 1341 
1453 1342 
1346 1347 1348 1349 
1345 1343 
1345 1238 
1345 1350 
1345 1351 
1353 1348 
1460 1349 
1353 1354 1355 1356 
1350 1352 
1245 1352 
1357 1352 
1358 1352 
1355 1360 
1467 1356 
1361 1362 1363 1360 
1357 1359 
1252 1359 
1364 1359 
1365 1359 
1362 1367 
1474 1363 
1369 1370 1367 1368 
1364 1366 
1259 1366 
1371 1366 
1372 1366 
1369 
1481 1370 
1377 1374 1375 1376 
1380 1373 
1266 1373 
1378 1373 
1379 1373 
1382 1376 
1377 1488 
1374 
1385 1382 1383 1384 
1378 1381 
1274 1381 
1386 1381 
1387 1381 
1389 1384 
1385 1496 
1389 1390 1391 1392 
1386 1388 
1281 1388 
1393 1388 
1394 1388 
1396 1391 
1503 1392 
1396 1397 1398 1399 
1393 1395 
1395 1288 
1395 1400 
1401 1395 
1403 1398 
1510 1399 
1403 1404 1405 1406 
1402 1400 
1402 1295 
1402 1407 
1402 1408 
1410 1405 
1517 1406 
1410 1411 1412 1413 
1409 1407 
1409 1302 
1409 1414 
1409 1415 
1417 1412 
1524 1413 
1417 1418 1419 1420 
1414 1416 
1309 1416 
1421 1416 
1422 1416 
1419 1424 
1531 1420 
1425 1426 1427 1424 
1421 1423 
1316 1423 
1428 1423 
1429 1423 
1426 1431 
1538 1427 
1433 1434 1431 1432 
1428 1430 
1323 1430 
1435 1430 
1436 1430 
1433 1438 
1545 1434 
1441 1438 1439 1440 
1435 1437 
1330 1437 
1442 1437 
1443 1437 
1445 1440 
1441 1552 
1445 1446 1447 1448 
1442 1444 
1337 1444 
1449 1444 
1450 1444 
1452 1447 
1559 1448 
1452 1453 1454 1455 
1449 1451 
1451 1344 
1451 1456 
1457 1451 
1459 1454 
1566 1455 
1459 1460 1461 1462 
1458 1456 
1458 1351 
1458 1463 
1458 1464 
1466 1461 
1573 1462 
1466 1467 1468 1469 
1465 1463 
1465 1358 
1465 1470 
1465 1471 
1473 1468 
1580 1469 
1473 1474 1475 1476 
1470 1472 
1365 1472 
1477 1472 
1478 1472 
1475 1480 
1587 1476 
1481 1482 1483 1480 
1477 1479 
1372 1479 
1484 1479 
1485 1479 
1482 
1594 1483 
1489 1490 1487 1488 
1493 1486 
1379 1486 
1491 1486 
1492 1486 
1489 1495 
1601 1490 
1487 
1497 1498 1495 1496 
1491 1494 
1387 1494 
1499 1494 
1500 1494 
1497 1502 
1609 1498 
1505 1502 1503 1504 
1499 1501 
1394 1501 
1506 1501 
1507 1501 
1509 1504 
1505 1616 
1509 1510 1511 1512 
1506 1508 
1401 1508 
1513 1508 
1514 1508 
1516 1511 
1623 1512 
1516 1517 1518 1519 
1513 1515 
1515 1408 
1515 1520 
1521 1515 
1523 1518 
1630 1519 
1523 1524 1525 1526 
1522 1520 
1522 1415 
1522 1527 
1522 1528 
1530 1525 
1637 1526 
1530 1531 1532 1533 
1529 1527 
1529 1422 
1529 1534 
1529 1535 
1537 1532 
1644 1533 
1537 1538 1539 1540 
1534 1536 
1429 1536 
1541 1536 
1542 1536 
1539 1544 
1651 1540 
1545 1546 1547 1544 
1541 1543 
1436 1543 
1548 1543 
1549 1543 
1546 1551 
1658 1547 
1553 1554 1551 1552 
1548 1550 
1443 1550 
1555 1550 
1556 1550 
1553 1558 
1665 1554 
1561 1558 1559 1560 
1555 1557 
1450 1557 
1562 1557 
1563 1557 
1565 1560 
1561 1672 
1565 1566 1567 1568 
1562 1564 
1457 1564 
1569 1564 
1570 1564 
1572 1567 
1679 1568 
1572 1573 1574 1575 
1569 1571 
1571 1464 
1571 1576 
1577 1571 
1579 1574 
1686 1575 
1579 1580 1581 1582 
1578 1576 
1578 1471 
1578 1583 
1578 1584 
1586 1581 
1693 1582 
1586 1587 1588 1589 
1585 1583 
1585 1478 
1585 1590 
1585 1591 
1593 1588 
1700 1589 
1593 1594 1595 1596 
1590 1592 
1485 1592 
1597 1592 
1598 1592 
1595 
1707 1596 
1601 1602 1603 1600 
1606 1599 
1492 1599 
1604 1599 
1605 1599 
1602 1608 
1714 1603 
1600 
1609 1610 1611 1608 
1604 1607 
1500 1607 
1612 1607 
1613 1607 
1610 1615 
1722 1611 
1617 1618 1615 1616 
1612 1614 
1507 1614 
1619 1614 
1620 1614 
1617 1622 
1729 1618 
1625 1622 1623 1624 
1619 1621 
1514 1621 
1626 1621 
1627 1621 
1629 1624 
1625 1736 
1629 1630 1631 1632 
1626 1628 
1521 1628 
1633 1628 
1634 1628 
1636 1631 
1743 1632 
1636 1637 1638 1639 
1633 1635 
1635 1528 
1635 1640 
1641 1635 
1643 1638 
1750 1639 
1643 1644 1645 1646 
1642 1640 
1642 1535 
1642 1647 
1642 1648 
1650 1645 
1757 1646 
1650 1651 1652 1653 
1649 1647 
1649 1542 
1649 1654 
1649 1655 
1657 1652 
1764 1653 
1657 1658 1659 1660 
1654 1656 
1549 1656 
1661 1656 
1662 1656 
1659 1664 
1771 1660 
1665 1666 1667 1664 
1661 1663 
1556 1663 
1668 1663 
1669 1663 
1666 1671 
1778 1667 
1673 1674 1671 1672 
1668 1670 
1563 1670 
1675 1670 
1676 1670 
1673 1678 
1785 1674 
1681 1678 1679 1680 
1675 1677 
1570 1677 
1682 1677 
1683 1677 
1685 1680 
1681 1792 
1685 1686 1687 1688 
1682 1684 
1577 1684 
1689 1684 
1690 1684 
1692 1687 
1799 1688 
1692 1693 1694 1695 
1689 1691 
1691 1584 
1691 1696 
1697 1691 
1699 1694 
1806 1695 
1699 1700 1701 1702 
1698 1696 
1698 1591 
1698 1703 
1698 1704 
1706 1701 
1813 1702 
1706 1707 1708 1709 
1705 1703 
1705 1598 
1705 1710 
1705 1711 
1708 
1820 1709 
1713 1714 1715 1716 
1719 1712 
1605 1712 
1717 1712 
1718 1712 
1721 1715 
1716 
1713 
1721 1722 1723 1724 
1717 1720 
1613 1720 
1725 1720 
1726 1720 
1723 1728 
1724 
1729 1730 1731 1728 
1725 1727 
1620 1727 
1732 1727 
1733 1727 
1730 1735 
1731 
1737 1738 1735 1736 
1732 1734 
1627 1734 
1739 1734 
1740 1734 
1737 1742 
1738 
1745 1742 1743 1744 
1739 1741 
1634 1741 
1746 1741 
1747 1741 
1749 1744 
1745 
1749 1750 1751 1752 
1746 1748 
1641 1748 
1753 1748 
1754 1748 
1756 1751 
1752 
1756 1757 1758 1759 
1753 1755 
1755 1648 
1755 1760 
1761 1755 
1763 1758 
1759 
1763 1764 1765 1766 
1762 1760 
1762 1655 
1762 1767 
1762 1768 
1770 1765 
1766 
1770 1771 1772 1773 
1769 1767 
1769 1662 
1769 1774 
1769 1775 
1777 1772 
1773 
1777 1778 1779 1780 
1774 1776 
1669 1776 
1781 1776 
1782 1776 
1779 1784 
1780 
1785 1786 1787 1784 
1781 1783 
1676 1783 
1788 1783 
1789 1783 
1786 1791 
1787 
1793 1794 1791 1792 
1788 1790 
1683 1790 
1795 1790 
1796 1790 
1793 1798 
1794 
1801 1798 1799 1800 
1795 1797 
1690 1797 
1802 1797 
1803 1797 
1805 1800 
1801 
1805 1806 1807 1808 
1802 1804 
1697 1804 
1809 1804 
1810 1804 
1812 1807 
1808 
1812 1813 1814 1815 
1809 1811 
1811 1704 
1811 1816 
1817 1811 
1819 1814 
1815 
1819 1820 1821 1822 
1818 1816 
1818 1711 
1818 1823 
1818 1824 
1821 
1822 
Periodic constraints
128 9 C R
1032 928 C R
580 476 C R
1484 1380 C R
354 250 C R
1258 1154 C R
806 702 C R
1710 1606 C R
241 137 C R
1145 1041 C R
693 589 C R
1597 1493 C R
467 363 C R
1371 1267 C R
919 815 C R
1823 1719 C R
1718 6 C U
1775 71 C U
1747 39 C U
1803 103 C U
1733 23 C U
1789 87 C U
1761 55 C U
1817 119 C U
1726 15 C U
1782 79 C U
1754 47 C U
1810 111 C U
1740 31 C U
1796 95 C U
1768 63 C U
1824 127 C U
