100
0.04068519694640654 0.02078182998352133 0.0
0.9716945885127776 -0.03748736219029291 0.0
1.9760267459497198 -0.0018999263231637142 0.0
2.959190113006572 0.01047112224171003 0.0
3.9883492939968583 -0.03795812649527012 0.0
4.978129083725864 -0.012117933826914663 0.0
6.003870977273961 0.0037059746390690432 0.0
7.0479613828938 0.02727114491214602 0.0
7.985726442727756 0.0020494381347172853 0.0
8.978675438375722 -0.031080489911019762 0.0
-0.01824934426059588 1.0073357826709755 0.0
0.969369865546769 1.0452519739575865 0.0
1.9891178956469364 1.0129887575323893 0.0
3.04609578225154 0.9603134050787936 0.0
4.0018127973548285 0.9579715619307532 0.0
5.029881022559252 1.025064298931949 0.0
6.0406983412425195 0.9705069718017012 0.0
7.025252025819547 0.9961255344285362 0.0
7.971442624457865 1.0198095680884727 0.0
8.91974089716872 0.9554734627764344 0.0
0.03894431057141227 2.0036982082066346 0.0
0.999578593752853 2.0431561126492817 0.0
2.028580973619124 2.049963347080005 0.0
3.0415857010941 2.045767611507826 0.0
3.976097176436906 2.019480876920913 0.0
4.967637777467108 2.0269202779163464 0.0
5.993954932588226 2.0430147176422326 0.0
7.034213536812872 1.9974675043673256 0.0
7.972787952198138 1.971490562327135 0.0
8.97693455200073 1.9518358883120934 0.0
0.020058314326179785 3.0396325139736002 0.0
1.0137808028818924 3.0023692459996014 0.0
1.9703158845738826 2.9894210093394507 0.0
2.963367172181692 2.9847904401524326 0.0
4.021777616224348 3.0459357776250386 0.0
4.995849296650271 2.9663171268784896 0.0
5.965766005362798 3.0400719594380887 0.0
6.961896047189252 2.970828557953831 0.0
8.035106889696129 2.964200050898432 0.0
8.958048555755497 2.987770194079059 0.0
-0.02409199519920421 3.9580985691218067 0.0
1.0192207288175004 3.9542625422807696 0.0
1.9739303086752558 4.029083358490266 0.0
2.9639088836496676 3.987728062373717 0.0
4.044359130653377 3.975309381493478 0.0
4.9598012980544235 3.9580459217401764 0.0
6.039318796127114 3.9738907627561173 0.0
6.986372395296431 4.046121820985216 0.0
7.970419660398516 4.024024141116718 0.0
8.913898246230113 3.9062362492272653 0.0
0.04429234840888108 5.026896593183904 0.0
1.021657247430258 4.961596559195526 0.0
1.9650173152578205 4.958584935356847 0.0
2.994676243585747 4.990839409371944 0.0
3.9515605917615804 5.046529590465783 0.0
4.977855674299273 5.029030003532405 0.0
6.036990319954931 5.036425545683568 0.0
7.006112140977601 4.970096591726477 0.0
7.977354047060734 5.0092039835657065 0.0
8.982282589838197 4.975034273289363 0.0
-0.03153577047948765 5.969268398324191 0.0
1.0216480003952015 5.980839726251288 0.0
1.9744022877034235 6.047638614382808 0.0
3.0466807789878656 6.013402704389977 0.0
3.9744936332389584 5.969162168966001 0.0
4.993156286059295 6.017239784438448 0.0
5.9648894619221196 5.98248861239478 0.0
7.006145411322951 6.0237343078340455 0.0
7.991389415830355 5.967393451349967 0.0
8.906454470949829 5.91740607842965 0.0
-0.029738821337950017 7.0449313708321295 0.0
1.0299889604221075 6.959211436457775 0.0
1.9919472950667 7.036380094002061 0.0
2.9781443650574366 7.029048534261067 0.0
3.975983042444147 6.9714635108811835 0.0
4.955753645973078 7.0187181638761595 0.0
5.951355959863736 7.004144905215172 0.0
7.032146362690859 6.99246385417344 0.0
7.969870509169606 7.009059336162242 0.0
8.908251420091366 6.993069050937589 0.0
0.0441483413645398 7.95452380230165 0.0
0.956972369821877 7.97065054434401 0.0
1.9636355920537818 7.967230291171037 0.0
2.952339469484785 8.040229818823407 0.0
4.000766383583757 8.00887333502777 0.0
5.018861772190153 7.974097596931563 0.0
5.977995887633464 8.040435087021969 0.0
7.029240032129982 8.007002151034088 0.0
8.013690463301282 8.02662710020488 0.0
8.982138582793857 7.902661482407109 0.0
-0.023897448460765882 9.049279711940095 0.0
0.9071119431056052 8.99101051976628 0.0
1.9114441005425473 9.02659795563341 0.0
2.8946074675994 9.038969004198284 0.0
3.923766648589686 8.990539755461302 0.0
4.913546438318691 9.016379948129659 0.0
5.939288331866789 9.032203856595642 0.0
6.983378737486627 9.055769026868719 0.0
7.921143797320584 9.03054732009129 0.0
8.914092792968551 8.997417392045554 0.0
2 11
3 12 1
4 13 2
5 14 3
6 15 4
7 16 5
8 17 6
9 18 7
10 19 8
20 9
1 12 21
13 22 11 2
14 23 12 3
15 24 13 4
16 25 14 5
17 26 15 6
18 27 16 7
19 28 17 8
20 29 18 9
30 19 10
11 22 31
23 32 21 12
24 33 22 13
25 34 23 14
26 35 24 15
27 36 25 16
28 37 26 17
29 38 27 18
30 39 28 19
40 29 20
21 32 41
33 42 31 22
34 43 32 23
35 44 33 24
36 45 34 25
37 46 35 26
38 47 36 27
39 48 37 28
40 49 38 29
50 39 30
31 42 51
43 52 41 32
44 53 42 33
45 54 43 34
46 55 44 35
47 56 45 36
48 57 46 37
49 58 47 38
50 59 48 39
60 49 40
41 52 61
53 62 51 42
54 63 52 43
55 64 53 44
56 65 54 45
57 66 55 46
58 67 56 47
59 68 57 48
60 69 58 49
70 59 50
51 62 71
63 72 61 52
64 73 62 53
65 74 63 54
66 75 64 55
67 76 65 56
68 77 66 57
69 78 67 58
70 79 68 59
80 69 60
61 72 81
73 82 71 62
74 83 72 63
75 84 73 64
76 85 74 65
77 86 75 66
78 87 76 67
79 88 77 68
80 89 78 69
90 79 70
71 82 91
83 92 81 72
84 93 82 73
85 94 83 74
86 95 84 75
87 96 85 76
88 97 86 77
89 98 87 78
90 99 88 79
100 89 80
81 92
91 82 93
92 83 94
93 84 95
94 85 96
95 86 97
96 87 98
97 88 99
98 89 100
99 90
Periodic points
10 1 C R
20 11 C R
30 21 C R
40 31 C R
50 41 C R
60 51 C R
70 61 C R
80 71 C R
90 81 C R
100 91 C R
91 1 C U
92 2 C U
93 3 C U
94 4 C U
95 5 C U
96 6 C U
97 7 C U
98 8 C U
99 9 C U
100 10 C U
