9
0.0 0.0 0.0
1.0 0.0 0.0
2.0 0.0 0.0
0.0 1.0 0.0
1.0 1.0 0.0
2.0 1.0 0.0
0.0 2.0 0.0
1.0 2.0 0.0
2.0 2.0 0.0
2 4
3 5 1
6 2
1 5 7
6 8 4 2
9 5 3
4 8
7 5 9
8 6
Periodic points
3 1 C R
6 4 C R
9 7 C R
7 1 C U
8 2 C U
9 3 C U
