11
-373.2050807568877 -57.73502691896248 0.0
-236.6025403784439 -136.60254037844368 0.0
-136.6025403784439 -194.33756729740622 0.0
-36.602540378443905 -136.60254037844368 0.0
100.00000000000001 -57.735026918962554 0.0
0.0 0.0 0.0
-136.6025403784438 78.86751345948133 0.0
-273.2050807568877 1.9895196601282805e-13 0.0
-215.47005383792518 -57.735026918962404 0.0
-57.735026918962525 -57.735026918962504 0.0
-136.6025403784439 -36.60254037844368 0.0
8  
3  9 
2  4  
3  10  
6  
10  5  
11  
1  9  
2  11  8  
4  6  11  
7  9  10  
Periodic points
1 3 C U
8 4 C U
7 5 C U
5 3 C R
6 2 C R
7 1 C R